央视,#genre#
CCTV-1 综合,http://39.134.66.110/PLTV/88888888/224/3221225816/index.m3u8
CCTV-1 综合,http://39.134.115.163:8080/PLTV/88888910/224/3221225618/index.m3u8
CCTV-1 综合,http://39.134.115.163:8080/PLTV/88888910/224/3221226221/index.m3u8
CCTV-1 综合,http://39.134.115.163:8080/PLTV/88888910/224/3221225918/index.m3u8
CCTV-1 综合,http://39.135.138.60:18890/PLTV/88888910/224/3221225618/index.m3u8
CCTV-1 综合,http://125.210.152.19:9090/live/hzgq-cctv1gq-h264.m3u8
CCTV-1 综合,http://59.44.10.113:9901/tsfile/live/1018_1.m3u8
CCTV-1 综合,http://117.148.179.155/PLTV/88888888/224/3221231468/index.m3u8
CCTV-1 综合,http://117.148.179.155/PLTV/88888888/224/3221231471/index.m3u8
CCTV-2 财经,http://125.210.152.19:9090/live/hzgq-cctv2gq-h264.m3u8
CCTV-2 财经,http://59.44.10.113:9901/tsfile/live/1001_1.m3u8
CCTV-2 财经,http://117.148.179.147/PLTV/88888888/224/3221231678/index.m3u8
CCTV-3 综艺,http://39.134.66.110/PLTV/88888888/224/3221225799/index.m3u8
CCTV-3 综艺,http://111.63.117.13:6060/030000001000/CCTV-3/CCTV-3.m3u8
CCTV-3 综艺,http://125.210.152.19:9090/live/hzgq-cctv3gq-h264.m3u8
CCTV-3 综艺,http://59.44.10.113:9901/tsfile/live/1050_1.m3u8
CCTV-4 中文国际,http://125.210.152.19:9090/live/hzgq-cctv4gq-h264.m3u8
CCTV-4 中文国际,http://39.134.115.163:8080/PLTV/88888910/224/3221225621/index.m3u8
CCTV-4 中文国际,http://59.44.10.113:9901/tsfile/live/1045_1.m3u8
CCTV-4 欧洲,http://117.148.179.162/PLTV/88888888/224/3221231615/index.m3u8
CCTV-5 体育,http://39.134.66.110/PLTV/88888888/224/3221225818/index.m3u8
CCTV-5 体育,http://140.207.241.3:8080/live/program/live/cctv5hd/4000000/mnf.m3u8
CCTV-5 体育,http://125.210.152.19:9090/live/hzgq-cctv5gq-h264.m3u8
CCTV-5 体育,http://59.44.10.113:9901/tsfile/live/1051_1.m3u8
CCTV-5+ 体育赛事,http://39.134.66.110/PLTV/88888888/224/3221225507/index.m3u8
CCTV-5+ 体育赛事,http://140.207.241.3:8080/live/program/live/cctv5phd/4000000/mnf.m3u8
CCTV-5+ 体育赛事,http://117.148.179.136/PLTV/88888888/224/3221231459/index.m3u8
CCTV-5+ 体育赛事,http://125.210.152.19:9090/live/hzgq-cctvzhgq-h264.m3u8
CCTV-5+ 体育赛事,http://39.134.115.163:8080/PLTV/88888910/224/3221225649/index.m3u8
CCTV-5+ 体育赛事,http://117.148.179.139/PLTV/88888888/224/3221231535/index.m3u8
CCTV-6 电影,http://39.134.66.110/PLTV/88888888/224/3221225814/index.m3u8
CCTV-6 电影,http://140.207.241.3:8080/live/program/live/cctv6hd/4000000/mnf.m3u8
CCTV-6 电影,http://125.210.152.19:9090/live/hzgq-cctv6gq-h264.m3u8
CCTV-6 电影,http://59.44.10.113:9901/tsfile/live/1052_1.m3u8
CCTV-7 国防军事,http://39.134.66.110/PLTV/88888888/224/3221225671/index.m3u8
CCTV-7 国防军事,http://39.135.138.60:18890/PLTV/88888910/224/3221225624/index.m3u8
CCTV-7 国防军事,http://125.210.152.19:9090/live/hzgq-cctv7gq-h264.m3u8
CCTV-7 国防军事,http://39.134.115.163:8080/PLTV/88888910/224/3221225624/index.m3u8
CCTV-7 国防军事,http://59.44.10.113:9901/tsfile/live/1070_1.m3u8
CCTV-8 电视剧,http://39.134.66.110/PLTV/88888888/224/3221225795/index.m3u8
CCTV-8 电视剧,http://39.135.138.60:18890/PLTV/88888910/224/3221225635/index.m3u8
CCTV-8 电视剧,http://125.210.152.19:9090/live/hzgq-cctv8gq-h264.m3u8
CCTV-8 电视剧,http://39.134.115.163:8080/PLTV/88888910/224/3221225635/index.m3u8
CCTV-8 电视剧,http://59.44.10.113:9901/tsfile/live/1053_1.m3u8
CCTV-9 纪录,http://39.134.66.110/PLTV/88888888/224/3221225676/index.m3u8
CCTV-9 纪录,http://39.135.138.59:18890/PLTV/88888910/224/3221225626/index.m3u8
CCTV-9 纪录,http://117.148.179.162/PLTV/88888888/224/3221231697/index.m3u8
CCTV-9 纪录,http://59.44.10.113:9901/tsfile/live/1002_1.m3u8
CCTV-10 科教,http://39.134.66.110/PLTV/88888888/224/3221225677/index.m3u8
CCTV-10 科教,http://39.134.66.66/PLTV/88888888/224/3221225677/index.m3u8
CCTV-10 科教,http://140.207.241.3:8080/live/program/live/cctv10hd/4000000/mnf.m3u8
CCTV-10 科教,http://125.210.152.19:9090/live/hzgq-cctv10gq-h264.m3u8
CCTV-10 科教,http://59.44.10.113:9901/tsfile/live/1004_1.m3u8
CCTV-10 科教,http://117.148.179.164/PLTV/88888888/224/3221232492/index.m3u8
CCTV-10 科教,http://117.148.179.175/PLTV/88888888/224/3221231666/index.m3u8
CCTV-11 戏曲,http://125.210.152.19:9090/live/hzgq-cctv11gq-h264.m3u8
CCTV-11 戏曲,http://59.44.10.113:9901/tsfile/live/1043_1.m3u8
CCTV-11 戏曲,http://117.148.179.164/PLTV/88888888/224/3221231711/index.m3u8
CCTV-11 戏曲,http://39.134.65.162/PLTV/88888888/224/3221225517/index.m3u8
CCTV-12 社会与法,http://39.134.66.110/PLTV/88888888/224/3221225669/index.m3u8
CCTV-12 社会与法,http://39.134.66.66/PLTV/88888888/224/3221225669/index.m3u8
CCTV-12 社会与法,http://117.148.179.150/PLTV/88888888/224/3221231660/index.m3u8
CCTV-12 社会与法,http://125.210.152.19:9090/live/hzgq-cctv12gq-h264.m3u8
CCTV-12 社会与法,http://59.44.10.113:9901/tsfile/live/1007_1.m3u8
CCTV-13 新闻,http://39.134.115.163:8080/PLTV/88888910/224/3221225638/index.m3u8
CCTV-13 新闻,http://59.44.10.113:9901/tsfile/live/1083_1.m3u8
CCTV-14 少儿,http://39.134.66.110/PLTV/88888888/224/3221225674/index.m3u8
CCTV-14 少儿,http://39.134.66.66/PLTV/88888888/224/3221225674/index.m3u8
CCTV-14 少儿,http://140.207.241.3:8080/live/program/live/cctvsehd/4000000/mnf.m3u8
CCTV-16 奥林匹克,http://liveop.cctv.cn/hls/CCTV16HD/playlist.m3u8
CCTV-16 奥林匹克,http://125.210.152.19:9090/live/hzgq-cctv16gq-h264.m3u8
CCTV-17 农业农村,http://39.134.115.163:8080/PLTV/88888910/224/3221225908/index.m3u8
CCTV-17 农业农村,http://39.134.66.110/PLTV/88888888/224/3221225708/index.m3u8
CCTV-17 农业农村,http://117.148.179.167/PLTV/88888888/224/3221231772/index.m3u8
CCTV-17 农业农村,http://125.210.152.19:9090/live/hzgq-cctv17gq-h264.m3u8
CCTV-4K 超高清,http://liveop.cctv.cn/hls/4KHD/playlist.m3u8
CETV1,http://117.148.179.149/PLTV/88888888/224/3221231552/index.m3u8
CETV1,http://39.134.66.66/PLTV/88888888/224/3221225563/index.m3u8
CETV2,http://117.148.179.162/PLTV/88888888/224/3221231607/index.m3u8
CETV3,http://117.148.179.136/PLTV/88888888/224/3221231543/index.m3u8
CETV4,http://117.148.179.155/PLTV/88888888/224/3221231613/index.m3u8
CGTN-英语,http://live.cgtn.com/1000/prog_index.m3u8
CGTN-英语,https://news.cgtn.com/resource/live/english/cgtn-news.m3u8?sign=1652235852-b3d2d3595f8f9f6fb0779c5a9a7d0285
CGTN-英语,http://117.148.179.174/PLTV/88888888/224/3221231592/index.m3u8
CGTN-法语,http://117.148.179.156/PLTV/88888888/224/3221231550/index.m3u8
CGTN-纪录,http://117.148.179.144/PLTV/88888888/224/3221231492/index.m3u8
CGTN-纪录,http://39.135.138.58:18890/PLTV/88888888/224/3221225645/index.m3u8
CCTV-怀旧剧场,http://117.148.179.158/PLTV/88888888/224/3221231544/index.m3u8
CCTV-怀旧剧场,http://117.148.179.147/PLTV/88888888/224/3221231544/index.m3u8
CCTV-第一剧场,http://117.148.179.172/PLTV/88888888/224/3221231540/index.m3u8
CCTV-第一剧场,http://117.148.179.147/PLTV/88888888/224/3221231540/index.m3u8
CCTV-风云足球,http://117.148.179.137/PLTV/88888888/224/3221231547/index.m3u8
CCTV-风云足球,http://117.148.179.147/PLTV/88888888/224/3221231547/index.m3u8
CCTV-女性时尚,http://117.148.179.167/PLTV/88888888/224/3221231598/index.m3u8
CCTV-女性时尚,http://117.148.179.147/PLTV/88888888/224/3221231598/index.m3u8
CCTV-央视台球,http://117.148.179.167/PLTV/88888888/224/3221231616/index.m3u8
CCTV-央视台球,http://117.148.179.147/PLTV/88888888/224/3221231616/index.m3u8
CCTV-央视文化精品,http://117.148.179.147/PLTV/88888888/224/3221231561/index.m3u8
CCTV-世界地理,http://117.148.179.147/PLTV/88888888/224/3221231537/index.m3u8
CCTV-风云剧场,http://117.148.179.147/PLTV/88888888/224/3221231604/index.m3u8
CCTV-电视指南,http://117.148.179.147/PLTV/88888888/224/3221231571/index.m3u8
央视蓝光,#genre#
CCTV8K[1920*1080],http://117.148.179.148/PLTV/88888888/224/3221233350/1.m3u8
CCTV8K[1920*1080],http://live.aikan.miguvideo.com/PLTV/88888888/224/3221233413/1.m3u8
CCTV1[1920*1080],http://hwrr.jx.chinamobile.com:8080/PLTV/88888888/224/3221225618/index.m3u8
CCTV1[1920*1080],http://hwrr.jx.chinamobile.com:8080/PLTV/88888888/224/3221225918/index.m3u8
CCTV1[1920*1080],http://39.134.66.48/PLTV/88888888/224/3221225816/index.m3u8
CCTV1[1920*1080],http://39.134.67.226/PLTV/88888888/224/3221225816/index.m3u8
CCTV1[1920*1080],http://39.134.65.179/PLTV/88888888/224/3221225816/index.m3u8
CCTV1[1920*1080],http://39.134.65.181/PLTV/88888888/224/3221225816/index.m3u8
CCTV1[1920*1080],http://39.134.67.7:80/ottrrs.hl.chinamobile.com/PLTV/88888888/224/3221226016/index.m3u8
CCTV1[1920*1080],http://117.148.179.155/PLTV/88888888/224/3221231468/1.m3u8
CCTV2[1920*1080],http://39.135.138.58:18890/PLTV/88888888/224/3221225619/index.m3u8
CCTV2[1920*1080],http://117.148.179.147/PLTV/88888888/224/3221231678/1.m3u8
CCTV3[1920*1080],http://hwrr.jx.chinamobile.com:8080/PLTV/88888888/224/3221225647/index.m3u8
CCTV3[1920*1080],http://39.134.66.46/PLTV/88888888/224/3221225799/index.m3u8
CCTV3[1920*1080],http://39.134.67.226/PLTV/88888888/224/3221225799/index.m3u8
CCTV3[1920*1080],http://39.134.65.179/PLTV/88888888/224/3221225799/index.m3u8
CCTV3[1920*1080],http://39.134.65.181/PLTV/88888888/224/3221225799/index.m3u8
CCTV3[1920*1080],http://39.134.65.173/PLTV/88888888/224/3221225799/index.m3u8
CCTV3[1920*1080],http://39.134.65.183/PLTV/88888888/224/3221225799/index.m3u8
CCTV3[1920*1080],http://39.134.65.175/PLTV/88888888/224/3221225799/index.m3u8
CCTV3[1920*1080],http://39.134.67.6:80/ottrrs.hl.chinamobile.com/PLTV/88888888/224/3221226021/index.m3u8
CCTV4[1920*1080],http://117.148.179.162/PLTV/88888888/224/3221231615/1.m3u8
CCTV4K[1920*1080],http://live.aikan.miguvideo.com/PLTV/88888888/224/3221233400/1.m3u8
CCTV5[1920*1080],http://111.63.117.13:6060/030000001000/CCTV-5/CCTV-5.m3u8
CCTV5[1920*1080],http://39.134.67.226/PLTV/88888888/224/3221225818/index.m3u8
CCTV5[1920*1080],http://39.134.65.179/PLTV/88888888/224/3221225818/index.m3u8
CCTV5[1920*1080],http://39.134.65.181/PLTV/88888888/224/3221225818/index.m3u8
CCTV5[1920*1080],http://39.134.65.173/PLTV/88888888/224/3221225818/index.m3u8
CCTV5[1920*1080],http://39.134.66.2/PLTV/88888888/224/3221225818/index.m3u8
CCTV5+[1920*1080],http://39.134.66.66/PLTV/88888888/224/3221225507/index.m3u8
CCTV5+[1920*1080],http://39.134.65.181/PLTV/88888888/224/3221225507/index.m3u8
CCTV5+[1920*1080],http://39.134.65.173/PLTV/88888888/224/3221225507/index.m3u8
CCTV5+[1920*1080],http://39.134.65.183/PLTV/88888888/224/3221225507/index.m3u8
CCTV5+[1920*1080],http://39.134.65.175/PLTV/88888888/224/3221225507/index.m3u8
CCTV5+[1920*1080],http://39.134.65.162/PLTV/88888888/224/3221225507/index.m3u8
CCTV5+[1920*1080],http://117.148.179.136/PLTV/88888888/224/3221231459/1.m3u8
CCTV6[1920*1080],http://117.148.179.153/PLTV/88888888/224/3221231724/1.m3u8
CCTV6[1920*1080],http://hwrr.jx.chinamobile.com:8080/PLTV/88888888/224/3221225650/index.m3u8
CCTV6[1920*1080],http://39.134.65.181/PLTV/88888888/224/3221225814/index.m3u8
CCTV6[1920*1080],http://39.134.65.173/PLTV/88888888/224/3221225814/index.m3u8
CCTV6[1920*1080],http://39.134.65.183/PLTV/88888888/224/3221225814/index.m3u8
CCTV6[1920*1080],http://39.134.65.175/PLTV/88888888/224/3221225814/index.m3u8
CCTV6[1920*1080],http://39.134.65.177/PLTV/88888888/224/3221225814/index.m3u8
CCTV6[1920*1080],http://39.134.66.2/PLTV/88888888/224/3221225814/index.m3u8
CCTV7[1920*1080],http://39.134.65.179/PLTV/88888888/224/3221225671/index.m3u8
CCTV7[1920*1080],http://39.134.65.164/PLTV/88888888/224/3221225671/index.m3u8
CCTV7[1920*1080],http://39.134.65.181/PLTV/88888888/224/3221225671/index.m3u8
CCTV7[1920*1080],http://39.134.65.173/PLTV/88888888/224/3221225671/index.m3u8
CCTV7[1920*1080],http://39.134.65.183/PLTV/88888888/224/3221225671/index.m3u8
CCTV7[1920*1080],http://39.134.66.2/PLTV/88888888/224/3221225671/index.m3u8
CCTV8[1920*1080],http://39.134.65.181/PLTV/88888888/224/3221225795/index.m3u8
CCTV8[1920*1080],http://39.134.65.173/PLTV/88888888/224/3221225795/index.m3u8
CCTV8[1920*1080],http://39.134.65.183/PLTV/88888888/224/3221225795/index.m3u8
CCTV8[1920*1080],http://39.134.65.175/PLTV/88888888/224/3221225795/index.m3u8
CCTV8[1920*1080],http://39.134.65.177/PLTV/88888888/224/3221225795/index.m3u8
CCTV9[1920*1080],http://39.134.66.46/PLTV/88888888/224/3221225676/index.m3u8
CCTV9[1920*1080],http://39.134.65.179/PLTV/88888888/224/3221225676/index.m3u8
CCTV9[1920*1080],http://39.134.65.181/PLTV/88888888/224/3221225676/index.m3u8
CCTV9[1920*1080],http://39.134.65.166/PLTV/88888888/224/3221225676/index.m3u8
CCTV9[1920*1080],http://39.134.65.183/PLTV/88888888/224/3221225676/index.m3u8
CCTV9[1920*1080],http://39.134.65.173/PLTV/88888888/224/3221225676/index.m3u8
CCTV9[1920*1080],http://hwrr.jx.chinamobile.com:8080/PLTV/88888888/224/3221225626/index.m3u8
CCTV9[1920*1080],http://117.148.179.162/PLTV/88888888/224/3221231697/1.m3u8
CCTV10[1920*1080],http://117.148.179.164/PLTV/88888888/224/3221232492/1.m3u8
CCTV10[1920*1080],http://117.148.179.175/PLTV/88888888/224/3221231666/1.m3u8
CCTV10[1920*1080],http://39.134.65.179/PLTV/88888888/224/3221225677/index.m3u8
CCTV10[1920*1080],http://39.134.65.164/PLTV/88888888/224/3221225677/index.m3u8
CCTV10[1920*1080],http://39.134.65.166/PLTV/88888888/224/3221225677/index.m3u8
CCTV10[1920*1080],http://39.134.65.181/PLTV/88888888/224/3221225677/index.m3u8
CCTV10[1920*1080],http://39.134.65.183/PLTV/88888888/224/3221225677/index.m3u8
CCTV11[1920*1080],http://117.148.179.164/PLTV/88888888/224/3221231711/1.m3u8
CCTV12[1920*1080],http://117.148.179.150/PLTV/88888888/224/3221231660/1.m3u8
CCTV12[1920*1080],http://39.134.65.179/PLTV/88888888/224/3221225669/index.m3u8
CCTV12[1920*1080],http://39.134.65.164/PLTV/88888888/224/3221225669/index.m3u8
CCTV12[1920*1080],http://39.134.65.181/PLTV/88888888/224/3221225669/index.m3u8
CCTV12[1920*1080],http://39.134.65.173/PLTV/88888888/224/3221225669/index.m3u8
CCTV13[1920*1080],http://39.135.138.59:18890/PLTV/88888910/224/3221225638/index.m3u8
CCTV13[1920*1080],http://39.135.138.58:18890/PLTV/88888888/224/3221225638/index.m3u8
CCTV14[1920*1080],http://39.134.65.179/PLTV/88888888/224/3221225674/index.m3u8
CCTV14[1920*1080],http://39.134.65.164/PLTV/88888888/224/3221225674/index.m3u8
CCTV14[1920*1080],http://39.134.65.181/PLTV/88888888/224/3221225674/index.m3u8
CCTV14[1920*1080],http://39.134.65.183/PLTV/88888888/224/3221225674/index.m3u8
CCTV14[1920*1080],http://39.134.65.173/PLTV/88888888/224/3221225674/index.m3u8
CCTV15[1920*1080],http://117.148.179.169/PLTV/88888888/224/3221231693/1.m3u8
CCTV16[1920*1080],http://hwrr.jx.chinamobile.com:8080/PLTV/88888910/224/3221226230/index.m3u8
CCTV17[1920*1080],http://39.134.66.46/PLTV/88888888/224/3221225708/index.m3u8
CCTV17[1920*1080],http://39.134.65.181/PLTV/88888888/224/3221225708/index.m3u8
CCTV17[1920*1080],http://39.134.65.183/PLTV/88888888/224/3221225708/index.m3u8
CCTV17[1920*1080],http://117.148.179.167/PLTV/88888888/224/3221231772/1.m3u8
地方蓝光,#genre#
江西卫视[1920*1080],http://39.135.138.58:18890/PLTV/88888910/224/3221225705/index.m3u8
湖南卫视[1920*1080],http://39.135.138.58:18890/PLTV/88888888/224/3221225745/index.m3u8
江苏卫视[1920*1080],http://39.135.138.58:18890/PLTV/88888888/224/3221225743/index.m3u8
天津卫视[1920*1080],http://39.135.138.58:18890/PLTV/88888888/224/3221225739/index.m3u8
山东卫视[1920*1080],http://39.135.138.58:18890/PLTV/88888888/224/3221225738/index.m3u8
安徽卫视[1920*1080],http://39.135.138.58:18890/PLTV/88888888/224/3221225737/index.m3u8
辽宁卫视[1920*1080],http://39.135.138.58:18890/PLTV/88888888/224/3221225735/index.m3u8
江苏卫视[1920*1080],http://117.148.179.175/PLTV/88888888/224/3221231447/1.m3u8
北京卫视[1920*1080],http://117.148.179.168/PLTV/88888888/224/3221231732/1.m3u8
湖南卫视[1920*1080],http://117.148.179.172/PLTV/88888888/224/3221231729/1.m3u8
湖南卫视[1920*1080],http://117.148.179.135/PLTV/88888888/224/3221230206/1.m3u8
湖南卫视[1920*1080],http://117.148.179.148/PLTV/88888888/224/3221230824/1.m3u8
广东卫视[1920*1080],http://117.148.179.141/PLTV/88888888/224/3221231891/1.m3u8
江西卫视[1920*1080],http://117.148.179.141/PLTV/88888888/224/3221231964/1.m3u8
浙江卫视[1920*1080],http://117.148.179.140/PLTV/88888888/224/3221229352/1.m3u8
黑龙江卫视[1920*1080],http://117.148.179.141/PLTV/88888888/224/3221231967/1.m3u8
湖北卫视[1920*1080],http://117.148.179.142/PLTV/88888888/224/3221231888/1.m3u8
辽宁卫视[1920*1080],http://117.148.179.152/PLTV/88888888/224/3221231802/1.m3u8
四川卫视[1920*1080],http://117.148.179.142/PLTV/88888888/224/3221231885/1.m3u8
湖南卫视[1920*1080],http://39.134.65.166/PLTV/88888888/224/3221225506/index.m3u8
湖南卫视[1920*1080],http://39.134.65.181/PLTV/88888888/224/3221225506/index.m3u8
江苏卫视[1920*1080],http://39.134.65.181/PLTV/88888888/224/3221225503/index.m3u8
浙江卫视[1920*1080],http://39.134.65.179/PLTV/88888888/224/3221225514/index.m3u8
浙江卫视[1920*1080],http://39.134.65.173/PLTV/88888888/224/3221225514/index.m3u8
浙江卫视[1920*1080],http://39.134.65.175/PLTV/88888888/224/3221225514/index.m3u8
浙江卫视[1920*1080],http://39.134.65.162/PLTV/88888888/224/3221225514/index.m3u8
东方卫视[1920*1080],http://39.134.65.179/PLTV/88888888/224/3221225672/index.m3u8
东方卫视[1920*1080],http://39.134.65.164/PLTV/88888888/224/3221225672/index.m3u8
东方卫视[1920*1080],http://39.134.65.173/PLTV/88888888/224/3221225865/index.m3u8
东方卫视[1920*1080],http://39.134.65.175/PLTV/88888888/224/3221225672/index.m3u8
东方卫视[1920*1080],http://39.135.138.58:18890/PLTV/88888888/224/3221225658/index.m3u8
深圳卫视[1920*1080],http://39.134.65.164/PLTV/88888888/224/3221225668/index.m3u8
深圳卫视[1920*1080],http://39.134.65.166/PLTV/88888888/224/3221225668/index.m3u8
深圳卫视[1920*1080],http://39.134.65.162/PLTV/88888888/224/3221225668/index.m3u8
北京卫视[1920*1080],http://39.134.65.179/PLTV/88888888/224/3221225678/index.m3u8
北京卫视[1920*1080],http://39.134.65.164/PLTV/88888888/224/3221225678/index.m3u8
北京卫视[1920*1080],http://39.134.65.166/PLTV/88888888/224/3221225678/index.m3u8
天津卫视[1920*1080],http://39.134.65.166/PLTV/88888888/224/3221225665/index.m3u8
天津卫视[1920*1080],http://39.134.65.162/PLTV/88888888/224/3221225665/index.m3u8
湖北卫视[1920*1080],http://39.134.65.162/PLTV/88888888/224/3221225569/index.m3u8
湖北卫视[1920*1080],http://39.134.65.164/PLTV/88888888/224/3221225569/index.m3u8
东南卫视[1920*1080],http://39.134.65.175/PLTV/88888888/224/3221225863/index.m3u8
重庆卫视[1920*1080],http://39.134.65.181/PLTV/88888888/224/3221225873/index.m3u8
河南卫视[1920*1080],http://39.134.65.166/PLTV/88888888/224/3221225890/index.m3u8
贵州卫视[1920*1080],http://39.134.65.149/PLTV/88888888/224/3221225974/index.m3u8
海南卫视[1920*1080],http://39.134.65.164/PLTV/88888888/224/3221225869/index.m3u8
海南卫视[1920*1080],http://39.134.65.183/PLTV/88888888/224/3221225869/index.m3u8
吉林卫视[1920*1080],http://39.134.65.177/PLTV/88888888/224/3221225872/index.m3u8
四川卫视[1920*1080],http://live.aikan.miguvideo.com/PLTV/88888888/224/3221231885/1.m3u8
兵团卫视[1920*1080],http://test5.btzx.com.cn/live/btxjbtws.stream/chunklist_w544078748.m3u8
湖南卫视[1920*1080],http://shbu.live.bestvcdn.com.cn:8080/live/program/live/hnwshd/4000000/mnf.m3u8
天津卫视[1920*1080],http://shbu.live.bestvcdn.com.cn:8080/live/program/live/tjwshd/4000000/mnf.m3u8
安徽卫视[1920*1080],http://hwrr.jx.chinamobile.com:8080/PLTV/88888888/224/3221225737/index.m3u8
江苏卫视[1920*1080],http://hwrr.jx.chinamobile.com:8080/PLTV/88888888/224/3221225743/index.m3u8
深圳卫视[1920*1080],http://hwrr.jx.chinamobile.com:8080/PLTV/88888888/224/3221225741/index.m3u8
苏州4k,http://liveshowbak2.kan0512.com/ksz-norecord/csztv4k_4k.m3u8
爱自然,https://d18dyiwu97wm6q.cloudfront.net/playlist2160p.m3u8
港澳,#genre#
凤凰资讯,http://play-live.ifeng.com/live/06OLEEWQKN4.m3u8
凤凰资讯,http://stream.guihet.com/t/ifeng2.php?id=1?zgangd
凤凰资讯,http://39.135.55.105:6610/PLTV/88888888/224/3221227226/index.m3u8?servicetype=1
凤凰资讯,http://playtv-live.ifeng.com/live/06OLEEWQKN4.m3u8
凤凰资讯,http://playtv-live.ifeng.com:80/live/06OLEEWQKN4_tv1.m3u8
凤凰资讯,http://playtv-live.ifeng.com/live/06OLEEWQKN4_tv1.m3u8?zgangd
凤凰资讯,http://playtv-live.ifeng.com:80/live/06OLEEWQKN4_tv2.m3u8?zgangd
凤凰资讯,https://playtv-live.ifeng.com/live/06OLEEWQKN4_tv2.m3u8?zgangd
凤凰资讯,https://playtv-live.ifeng.com/live/06OLEEWQKN4_tv1.m3u8?zgangd
凤凰资讯,http://playtv-live.ifeng.com:80/live/06OLEEWQKN4.m3u8?zgangd
凤凰资讯,http://playtv-live.ifeng.com/live/06OLEEWQKN4_tv2.m3u8?zgangd
凤凰资讯,http://111.59.189.40:8445/tsfile/live/1021_1.m3u8?zgangd
凤凰中文,http://play-live.ifeng.com/live/06OLEGEGM4G.m3u8
凤凰资讯,http://playtv-live.ifeng.com/live/06OLEEWQKN4.m3u8
凤凰资讯,http://iptv.tvfix.org/hls/fhzx.m3u8
凤凰资讯,http://hkss3.phoenixtv.com/fs/pic.stream/.m3u8
凤凰资讯,http://27.47.68.16:808/hls/33/index.m3u8
TVB J2 HD,http://120.84.96.152:808/hls/86/index.m3u8
凤凰香港,http://stream.guihet.com/t/ifeng2.php?id=3?zgangd
凤凰香港,http://183.207.249.35/PLTV/3/224/3221226975/2020215104547.m3u8?zgangd
凤凰香港,http://183.207.249.34/ott.js.chinamobile.com/PLTV/3/224/3221226975/index.m3u8?zgangd
凤凰香港,http://183.207.249.34/PLTV/3/224/3221226975/index.m3u8
澳门莲花,http://anren.live/HK/BiIOU11uLA.m3u8
财经频道,#genre#
点掌财经,https://wsvideo.aniu.tv/live/aniu/playlist.m3u8
点掌财经,http://cclive2.aniu.tv/live/anzb.m3u8
第一财经,http://183.207.255.188/live/program/live/dycjhd/4000000/mnf.m3u8
第一财经,http://140.207.241.3:8080/live/program/live/dycjhd/4000000/d1.m3u8?zshangd
少儿动画,#genre#
金鹰卡通少儿,http://39.135.32.24:6610/000000001000/1000000002000016601/1.m3u8?xtkg
嘉佳卡通少儿,http://39.135.32.24:6610/000000001000/1000000002000025964/1.m3u8?xtkg
卡酷少儿,http://39.135.32.24:6610/000000001000/7589856436881630561/1.m3u8?xtkg
优漫卡通少儿,http://39.135.32.24:6610/000000001000/1000000002000010063/1.m3u8?xtkg
卡酷少儿,http://111.63.117.13:6060/030000001000/G_KAKU/G_KAKU.m3u8
小猪佩奇,http://baiducdncmn2.inter.iqiyi.com/tslive/c53_lb_78_1080P_t10/c53_lb_78_1080P_t10.m3u8
少儿14台,http://39.135.32.24:6610/000000001000/1000000001000008170/1.m3u8?i?zzhongd
少儿14台,http://117.148.179.157/PLTV/88888888/224/3221231648/index.m3u8?zzhongd
14台少儿,http://111.40.196.30/PLTV/88888888/224/3221225573/index.m3u8?zyangd
14台少儿,http://117.148.179.157/PLTV/88888888/224/3221232849/index.m3u8?zyangd
14台少儿,http://111.63.117.13:6060/030000001000/G_CCTV-14/G_CCTV-14.m3u8?zyangd
14台少儿,http://123.6.9.146/live/jz-cctv-14/live.m3u8?zyangd
北京卡酷少儿,http://39.135.32.10:6610/000000001000/kakukaton/1.m3u8?IASHttpSessionId=OTT?zbeid
北京卡酷少儿,http://111.63.117.13:6060/030000001000/G_KAKU/G_KAKU.m3u8?zbeid
浙江少儿,http://hw-m-l.cztv.com/channels/lantian/channel008/1080p.m3u8?zzhed
浙江少儿,http://yd-m-l.cztv.com/channels/lantian/channel008/1080p.m3u8?zzhed
浙江少儿,http://hw-m-l.cztv.com/channels/lantian/channel08/720p.m3u8?zzhed
浙江少儿,http://hw-m-l.cztv.com/channels/lantian/channel08/360p.m3u8?zzhed
杭州少儿体育,http://117.148.179.157/PLTV/88888888/224/3221229316/index.m3u8?zzhed
福州少儿,http://live.zohi.tv/video/s10001-sepd-4/index.m3u8?zfud
江西少儿家庭,http://local.live.jxtvcn.com.cn/live-jxtv/tv_jxtv6.m3u8?zjiangxd
江西少儿家庭,http://39.134.115.191:8080/ysten.jx.chinamobile.com/PLTV/88888888/224/3221225577/2/index.m3u8?fmt=ts2hls?zjiangxd
甘肃少儿,http://39.134.32.102:6610/270000001111/1110000327/index.m3u8?IASHttpSessionId=OTT
黑龙江少儿,http://39.134.65.151/PLTV/88888888/224/3221226002/1.m3u8?zheild
黑龙江少儿,http://39.134.65.145/PLTV/88888888/224/3221226002/1.m3u8?zheild
河北少儿科教,http://live6.plus.hebtv.com/sekjx/hd/live.m3u8?zhebd
韩国EBS少儿童,http://ebsonairios.ebs.co.kr/ebsutablet500k/_definst_/tablet500k/chunklist_w1965791004.m3u8?zshijd
浙江少兒,http://hw-m-l.cztv.com/channels/lantian/channel08/1080p.m3u8?k=1a7559a51eeb880b021619a07f463ac4&t=1577153787
福州少儿,http://live.zohi.tv/video/s10001-sepd-4/index.m3u8
哆啦A梦-,http://fangsong.live/hls/bili.php?id=1717236
中华小当家-,http://fangsong.live/hls/bili.php?id=655291
樱桃小丸子-,http://fangsong.live/hls/bili.php?id=11765640
蜡笔小新-,http://fangsong.live/hls/bili.php?id=11579951
猫和老鼠-,http://fangsong.live/hls/bili.php?id=22905626
猫和老鼠,http://lvbaiducdncmn.inter.iqiyi.com/tslive/c52_lb_83_600_t10/c52_lb_83_600_t10.m3u8?key=0b292c335e5837e94e2f0ba45f46717fa
童年经典,http://lvbaiducdncmn.inter.iqiyi.com/tslive/c57_lb_211_600_t10/c57_lb_211_600_t10.m3u8?key=0f2a06793124310bce6ba95fc0ac76131
玩具乐园,http://lvbaiducdncmn.inter.iqiyi.com/tslive/c54_lb_175_600_t10/c54_lb_175_600_t10.m3u8?key=051d9240247766709d65dde3fcd5cd7bb
怀旧动画,http://lvbaiducdncmn.inter.iqiyi.com/tslive/c53_lb_86_600_t10/c53_lb_86_600_t10.m3u8?key=0b292c335e5837e943a226d3c381f872a
巧虎,http://lvbaiducdncmn.inter.iqiyi.com/tslive/c55_lb_135_600_t10/c55_lb_135_600_t10.m3u8?key=0f2a06793124310bcefefdf4e48b17f9a
小猪佩奇,http://lvbaiducdncmn.inter.iqiyi.com/tslive/c53_lb_78_1080P_t10/c53_lb_78_1080P_t10.m3u8
宝宝课堂,http://lvbaiducdncmn.inter.iqiyi.com/tslive/c57_lb_225_600_t10/c57_lb_225_600_t10.m3u8?key=0b292c335e5837e94abaa8d3135e83ce3
奥特曼,http://lvbaiducdncmn.inter.iqiyi.com/tslive/c57_lb_210_600_t10/c57_lb_210_600_t10.m3u8?key=0b292c335e5837e94abe4b846218bbc95
喜羊羊,http://lvbaiducdncmn.inter.iqiyi.com/tslive/c55_lb_91_1080P_t10/c55_lb_91_1080P_t10.m3u8?key=0b292c335e5837e943e554ef181bdcec1
名贞探柯南,http://lvbaiducdncmn.inter.iqiyi.com/tslive/c54_lb_157_600_t10/c54_lb_157_600_t10.m3u8?key=0b292c335e5837e948e91dd5d11efa525
动画小天地,http://lvbaiducdncmn.inter.iqiyi.com/tslive/c55_lb_139_600_t10/c55_lb_139_600_t10.m3u8?key=0f2a06793124310bc475d77d809f3ab51
兔小贝尔歌,http://lvbaiducdncmn.inter.iqiyi.com/tslive/c54_lb_136_600_t10/c54_lb_136_600_t10.m3u8?key=0b292c335e5837e94ae056154862a578b
儿童乐园,http://lvbaiducdncmn.inter.iqiyi.com/tslive/c57_lb_215_600_t10/c57_lb_215_600_t10.m3u8?key=0b292c335e5837e943410c2bfa7a7387e
儿歌大全,http://lvbaiducdncmn.inter.iqiyi.com/tslive/c57_lb_242_600_t10/c57_lb_242_600_t10.m3u8?key=0f2a06793124310bc8499ebf63370c51a
倒霉熊,http://lvbaiducdncmn.inter.iqiyi.com/tslive/c54_lb_140_600_t10/c54_lb_140_600_t10.m3u8?key=0f2a06793124310bccc587b5da61b57da
亲子小游戏,http://lvbaiducdncmn.inter.iqiyi.com/tslive/c56_lb_178_600_t10/c56_lb_178_600_t10.m3u8?key=0b292c335e5837e94ffc1113a2140b54
亲子启蒙,http://lvbaiducdncmn.inter.iqiyi.com/tslive/c57_lb_213_600_t10/c57_lb_213_600_t10.m3u8?key=0f2a06793124310bc21adebc9f02a9735
狮子王国,https://newcntv.qcloudcdn.com/asp/hls/850/0303000a/3/default/c2e7e767f3144bed959ef20b8b961fe5/850.m3u8
倒霉特熊,https://newcntv.qcloudcdn.com/asp/hls/1200/0303000a/3/default/87f87ba569c147e3805f80e4844d2de9/1200.m3u8
反转星球,https://newcntv.qcloudcdn.com/asp/hls/1200/0303000a/3/default/3ccdecc7d6e341c1920ad4eac5d82f38/1200.m3u8
云朵妈妈,https://newcntv.qcloudcdn.com/asp/hls/1200/0303000a/3/default/d8ad434c6b08421a927557a4d98da65c/1200.m3u8
熊大熊二,https://newcntv.qcloudcdn.com/asp/hls/1200/0303000a/3/default/1733da751de64e6e910abda889d87a26/1200.m3u8
熊大过年,https://newcntv.qcloudcdn.com/asp/hls/1200/0303000a/3/default/7ae265653fe149069c3b53e31caaf060/1200.m3u8
猪侠英雄,https://newcntv.qcloudcdn.com/asp/hls/1200/0303000a/3/default/0f03b08bc7b042358144617000fd2931/1200.m3u8
直播中国,#genre#
直播中国精编直播,http://gcksc.v.kcdnvip.com/gc/wgw05_1/index.m3u8
直播中国精编直播,http://gcbsc.v.live.baishancdnx.cn/gc/wgw05_1/index.m3u8
湖南张家界水绕四门,http://gcksc.v.kcdnvip.com/gc/zjjsrsm_1/index.m3u8
湖南张家界水绕四门,http://gcbsc.v.live.baishancdnx.cn/gc/zjjsrsm_1/index.m3u8
湖南张家界将军列队,http://gcksc.v.kcdnvip.com/gc/zjjjjdl_1/index.m3u8
湖南张家界将军列队,http://gcbsc.v.live.baishancdnx.cn/gc/zjjjjdl_1/index.m3u8
湖南张家界阿凡达悬浮山,http://gcksc.v.kcdnvip.com/gc/zjjafdxfs_1/index.m3u8
湖南张家界阿凡达悬浮山,http://gcbsc.v.live.baishancdnx.cn/gc/zjjafdxfs_1/index.m3u8
湖南张家界迷魂台,http://gcksc.v.kcdnvip.com/gc/zjjmht_1/index.m3u8
湖南张家界迷魂台,http://gccncc.v.wscdns.com/gc/zjjmht_1/index.m3u8
湖南张家界迷魂台,http://gcbsc.v.live.baishancdnx.cn/gc/zjjmht_1/index.m3u8
湖南张家界宝峰湖,http://gcksc.v.kcdnvip.com/gc/zjjbfh_1/index.m3u8
湖南张家界宝峰湖,http://gccncc.v.wscdns.com/gc/zjjbfh_1/index.m3u8
湖南张家界宝峰湖,http://gcbsc.v.live.baishancdnx.cn/gc/zjjbfh_1/index.m3u8
湖南张家界御笔峰,http://gcksc.v.kcdnvip.com/gc/zjjybf_1/index.m3u8
湖南张家界御笔峰,http://gcbsc.v.live.baishancdnx.cn/gc/zjjybf_1/index.m3u8
四川峨眉山云海日出,http://gcksc.v.kcdnvip.com/gc/emsarm_1/index.m3u8
四川峨眉山云海日出,http://gccncc.v.wscdns.com/gc/emsarm_1/index.m3u8
四川峨眉山云海日出,http://gcbsc.v.live.baishancdnx.cn/gc/emsarm_1/index.m3u8
四川峨眉山远眺贡嘎雪山,http://gcksc.v.kcdnvip.com/gc/emsyh_1/index.m3u8
四川峨眉山远眺贡嘎雪山,http://gcbsc.v.live.baishancdnx.cn/gc/emsyh_1/index.m3u8
四川峨眉山普贤菩萨铜像,http://gcksc.v.kcdnvip.com/gc/emspxps_1/index.m3u8
四川峨眉山普贤菩萨铜像,http://gccncc.v.wscdns.com/gc/emspxps_1/index.m3u8
四川峨眉山普贤菩萨铜像,http://gcbsc.v.live.baishancdnx.cn/gc/emspxps_1/index.m3u8
四川峨眉山远眺万佛顶,http://gcksc.v.kcdnvip.com/gc/emswfs_1/index.m3u8
四川峨眉山远眺万佛顶,http://gcbsc.v.live.baishancdnx.cn/gc/emswfs_1/index.m3u8
浙江杭州云栖小镇,http://gcksc.v.kcdnvip.com/gc/wygjt2_1/index.m3u8
浙江杭州云栖小镇,http://gccncc.v.wscdns.com/gc/wygjt2_1/index.m3u8
浙江杭州云栖小镇,http://gcbsc.v.live.baishancdnx.cn/gc/wygjt2_1/index.m3u8
重庆石柱华溪村,http://gcksc.v.kcdnvip.com/gc/jsh02_1/index.m3u8
重庆石柱华溪村,http://gccncc.v.wscdns.com/gc/jsh02_1/index.m3u8
重庆石柱华溪村,http://gcbsc.v.live.baishancdnx.cn/gc/jsh02_1/index.m3u8
江西井冈山神山村,http://gcksc.v.kcdnvip.com/gc/wysyxdhp_1/index.m3u8
江西井冈山神山村,http://gcbsc.v.live.baishancdnx.cn/gc/wysyxdhp_1/index.m3u8
安徽金寨大湾村,http://gcksc.v.kcdnvip.com/gc/szgk01_1/index.m3u8
安徽金寨大湾村,http://gcbsc.v.live.baishancdnx.cn/gc/szgk01_1/index.m3u8
山西苛岚宋家沟新村,http://gcksc.v.kcdnvip.com/gc/wysdhpcy_1/index.m3u8
山西苛岚宋家沟新村,http://gcbsc.v.live.baishancdnx.cn/gc/wysdhpcy_1/index.m3u8
河北张北德胜村,http://gcksc.v.kcdnvip.com/gc/pygc01_1/index.m3u8
河北张北德胜村,http://gccncc.v.wscdns.com/gc/pygc01_1/index.m3u8
河北张北德胜村,http://gcbsc.v.live.baishancdnx.cn/gc/pygc01_1/index.m3u8
新疆天山(海西平台),http://gcksc.v.kcdnvip.com/gc/xjtchxpt_1/index.m3u8
新疆天山(定海神针),http://gcksc.v.kcdnvip.com/gc/xjtcdhsz_1/index.m3u8
新疆天山(定海神针),http://gctxyc.liveplay.myqcloud.com/gc/xjtcdhsz_1/index.m3u8
新疆天山(马牙山),http://gcksc.v.kcdnvip.com/gc/xjtcmys_1/index.m3u8
新疆天山(灯杆山),http://gcksc.v.kcdnvip.com/gc/xjtcdgs_1/index.m3u8
湖南张家界天门山西线玻璃栈道,http://gcksc.v.kcdnvip.com/gc/tms05_1/index.m3u8
湖南张家界天门山西线玻璃栈道,http://gcbsc.v.live.baishancdnx.cn/gc/tms05_1/index.m3u8
湖南张家界天门山天门洞,http://gcksc.v.kcdnvip.com/gc/tmstmd01_1/index.m3u8
湖南张家界天门山天门洞,http://gcbsc.v.live.baishancdnx.cn/gc/tmstmd01_1/index.m3u8
湖南张家界天门山天空步道,http://gcksc.v.kcdnvip.com/gc/tms02_1/index.m3u8
湖南张家界天门山天空步道,http://gccncc.v.wscdns.com/gc/tms02_1/index.m3u8
湖南张家界天门山天空步道,http://gcbsc.v.live.baishancdnx.cn/gc/tms02_1/index.m3u8
湖南张家界天门山云梦仙顶,http://gcksc.v.kcdnvip.com/gc/tms04_1/index.m3u8
湖南张家界天门山云梦仙顶,http://gcbsc.v.live.baishancdnx.cn/gc/tms04_1/index.m3u8
厦门鼓浪屿,http://gcksc.v.kcdnvip.com/gc/gly01_1/index.m3u8
厦门鼓浪屿,http://gccncc.v.wscdns.com/gc/gly01_1/index.m3u8
厦门鼓浪屿,http://gcbsc.v.live.baishancdnx.cn/gc/gly01_1/index.m3u8
广西玉林大容山莲花山顶,http://gcksc.v.kcdnvip.com/gc/drs01_1/index.m3u8
广西玉林大容山莲花山顶,http://gcbsc.v.live.baishancdnx.cn/gc/drs01_1/index.m3u8
八里沟风景区桃花湾瀑布,http://gcksc.v.kcdnvip.com/gc/blg05_1/index.m3u8
八里沟风景区桃花湾瀑布,http://gcbsc.v.live.baishancdnx.cn/gc/blg05_1/index.m3u8
八里沟风景区天界山玻璃栈道,http://gcksc.v.kcdnvip.com/gc/blg03_1/index.m3u8
八里沟风景区天界山玻璃栈道,http://gcbsc.v.live.baishancdnx.cn/gc/blg03_1/index.m3u8
汶川映秀新城,http://gcksc.v.kcdnvip.com/gc/wcyxxc01_1/index.m3u8
汶川映秀新城,http://gcbsc.v.live.baishancdnx.cn/gc/wcyxxc01_1/index.m3u8
十八洞村,http://gcksc.v.kcdnvip.com/gc/sbd01_1/index.m3u8
十八洞村,http://gcbsc.v.live.baishancdnx.cn/gc/sbd01_1/index.m3u8
趵突泉,http://gcksc.v.kcdnvip.com/gc/btq01_1/index.m3u8
趵突泉,http://gcbsc.v.live.baishancdnx.cn/gc/btq01_1/index.m3u8
安徽池州九华山风景区拜经台,http://gcksc.v.kcdnvip.com/gc/jhs02_1/index.m3u8
安徽池州九华山风景区拜经台,http://gcbsc.v.live.baishancdnx.cn/gc/jhs02_1/index.m3u8
安徽池州九华山风景区九华山,http://gcksc.v.kcdnvip.com/gc/jhs05_1/index.m3u8
安徽池州九华山风景区九华山,http://gccncc.v.wscdns.com/gc/jhs05_1/index.m3u8
安徽池州九华山风景区九华山,http://gcbsc.v.live.baishancdnx.cn/gc/jhs05_1/index.m3u8
安徽池州九华山风景区花台,http://gcksc.v.kcdnvip.com/gc/jhs01_1/index.m3u8
安徽池州九华山风景区花台,http://gcbsc.v.live.baishancdnx.cn/gc/jhs01_1/index.m3u8
江苏徐州云龙湖风景区云龙山观景台西,http://gcksc.v.kcdnvip.com/gc/ylh04_1/index.m3u8
江苏徐州云龙湖风景区云龙山观景台西,http://gcbsc.v.live.baishancdnx.cn/gc/ylh04_1/index.m3u8
江苏徐州云龙湖风景区云龙山观景台南,http://gcksc.v.kcdnvip.com/gc/ylh03_1/index.m3u8
江苏徐州云龙湖风景区云龙山观景台南,http://gccncc.v.wscdns.com/gc/ylh03_1/index.m3u8
江苏徐州云龙湖风景区云龙山观景台南,http://gcbsc.v.live.baishancdnx.cn/gc/ylh03_1/index.m3u8
浙江杭州千岛湖,http://gcksc.v.kcdnvip.com/gc/caqdh_1/index.m3u8
浙江杭州千岛湖,http://gccncc.v.wscdns.com/gc/caqdh_1/index.m3u8
浙江杭州千岛湖,http://gcbsc.v.live.baishancdnx.cn/gc/caqdh_1/index.m3u8
南京玄武湖公园,http://gcksc.v.kcdnvip.com/gc/xwh01_1/index.m3u8
南京玄武湖公园,http://gcbsc.v.live.baishancdnx.cn/gc/xwh01_1/index.m3u8
云南丽江玉龙雪山,http://gcksc.v.kcdnvip.com/gc/ylxs11_1/index.m3u8
云南丽江玉龙雪山,http://gccncc.v.wscdns.com/gc/ylxs11_1/index.m3u8
云南丽江玉龙雪山,http://gcbsc.v.live.baishancdnx.cn/gc/ylxs11_1/index.m3u8
云南丽江玉液湖,http://gcksc.v.kcdnvip.com/gc/hkylxs02_1/index.m3u8
云南丽江玉液湖,http://gcbsc.v.live.baishancdnx.cn/gc/hkylxs02_1/index.m3u8
云南丽江蓝月谷,http://gcksc.v.kcdnvip.com/gc/ylxs12_1/index.m3u8
云南丽江蓝月谷,http://gcbsc.v.live.baishancdnx.cn/gc/ylxs12_1/index.m3u8
云南白沙远眺玉龙雪山,http://gcksc.v.kcdnvip.com/gc/hkylxs03_1/index.m3u8
云南白沙远眺玉龙雪山,http://gcbsc.v.live.baishancdnx.cn/gc/hkylxs03_1/index.m3u8
云南丽江一滴水过丽江,http://gcksc.v.kcdnvip.com/gc/hkylxs04_1/index.m3u8
云南丽江一滴水过丽江,http://gcbsc.v.live.baishancdnx.cn/gc/hkylxs04_1/index.m3u8
云南丽江玉龙雪山草甸,http://gcksc.v.kcdnvip.com/gc/hkylxs06_1/index.m3u8
云南丽江玉龙雪山草甸,http://gcbsc.v.live.baishancdnx.cn/gc/hkylxs06_1/index.m3u8
云南丽江白水台,http://gcksc.v.kcdnvip.com/gc/hkylxs07_1/index.m3u8
云南丽江白水台,http://gcbsc.v.live.baishancdnx.cn/gc/hkylxs07_1/index.m3u8
云南丽江蓝月谷中游湖面,http://gcksc.v.kcdnvip.com/gc/hkylxs08_1/index.m3u8
云南丽江蓝月谷中游湖面,http://gccncc.v.wscdns.com/gc/hkylxs08_1/index.m3u8
云南丽江蓝月谷中游湖面,http://gcbsc.v.live.baishancdnx.cn/gc/hkylxs08_1/index.m3u8
云南丽江高尔夫,http://gcksc.v.kcdnvip.com/gc/hkylxs09_1/index.m3u8
云南丽江高尔夫,http://gccncc.v.wscdns.com/gc/hkylxs09_1/index.m3u8
云南丽江高尔夫,http://gcbsc.v.live.baishancdnx.cn/gc/hkylxs09_1/index.m3u8
云南丽江冰川,http://gcksc.v.kcdnvip.com/gc/hkylxs05_1/index.m3u8
云南丽江冰川,http://gcbsc.v.live.baishancdnx.cn/gc/hkylxs05_1/index.m3u8
云南丽江印象实景,http://gcksc.v.kcdnvip.com/gc/hkylxs01_1/index.m3u8
云南丽江印象实景,http://gccncc.v.wscdns.com/gc/hkylxs01_1/index.m3u8
云南丽江印象实景,http://gcbsc.v.live.baishancdnx.cn/gc/hkylxs01_1/index.m3u8
江苏南京牛首山,http://gcksc.v.kcdnvip.com/gc/nss01_1/index.m3u8
江苏南京牛首山,http://gcbsc.v.live.baishancdnx.cn/gc/nss01_1/index.m3u8
福建漳州六鳌翡翠湾,http://gcksc.v.kcdnvip.com/gc/fcw01_1/index.m3u8
福建漳州六鳌翡翠湾,http://gccncc.v.wscdns.com/gc/fcw01_1/index.m3u8
福建漳州六鳌翡翠湾,http://gcbsc.v.live.baishancdnx.cn/gc/fcw01_1/index.m3u8
福建漳州醉美沙滩翡翠湾,http://gcksc.v.kcdnvip.com/gc/fcw03_1/index.m3u8
福建漳州醉美沙滩翡翠湾,http://gccncc.v.wscdns.com/gc/fcw03_1/index.m3u8
福建漳州醉美沙滩翡翠湾,http://gcbsc.v.live.baishancdnx.cn/gc/fcw03_1/index.m3u8
天津之眼,http://gcksc.v.kcdnvip.com/gc/tjhh01_1/index.m3u8
天津之眼,http://gccncc.v.wscdns.com/gc/tjhh01_1/index.m3u8
天津之眼,http://gcbsc.v.live.baishancdnx.cn/gc/tjhh01_1/index.m3u8
四川西昌邛海景区,http://gcksc.v.kcdnvip.com/gc/xcqh01_1/index.m3u8
四川西昌邛海景区,http://gccncc.v.wscdns.com/gc/xcqh01_1/index.m3u8
四川西昌邛海景区,http://gcbsc.v.live.baishancdnx.cn/gc/xcqh01_1/index.m3u8
普陀山,http://gcksc.v.kcdnvip.com/gc/pts01_1/index.m3u8
普陀山,http://gcbsc.v.live.baishancdnx.cn/gc/pts01_1/index.m3u8
浙江舟山东极岛,http://gcksc.v.kcdnvip.com/gc/djd01_1/index.m3u8
浙江舟山东极岛,http://gcbsc.v.live.baishancdnx.cn/gc/djd01_1/index.m3u8
河南郑东新区千玺广场,http://gcksc.v.kcdnvip.com/gc/zdxq01_1/index.m3u8
河南郑东新区千玺广场,http://gccncc.v.wscdns.com/gc/zdxq01_1/index.m3u8
河南郑东新区千玺广场,http://gcbsc.v.live.baishancdnx.cn/gc/zdxq01_1/index.m3u8
四川四姑娘山幺妹峰,http://gcksc.v.kcdnvip.com/gc/sgns01_1/index.m3u8
四川四姑娘山幺妹峰,http://gcbsc.v.live.baishancdnx.cn/gc/sgns01_1/index.m3u8
四川四姑娘山隆珠措,http://gcksc.v.kcdnvip.com/gc/sgns02_1/index.m3u8
四川四姑娘山隆珠措,http://gccncc.v.wscdns.com/gc/sgns02_1/index.m3u8
四川四姑娘山隆珠措,http://gcbsc.v.live.baishancdnx.cn/gc/sgns02_1/index.m3u8
宁夏沙坡头黄河漂流,http://gcbsc.v.live.baishancdnx.cn/gc/nxspthhpl_1/index.m3u8
宁夏沙坡头长河落日,http://gcksc.v.kcdnvip.com/gc/nxsptdmgychlr_1/index.m3u8
宁夏沙坡头长河落日,http://gccncc.v.wscdns.com/gc/nxsptdmgychlr_1/index.m3u8
宁夏沙坡头长河落日,http://gcbsc.v.live.baishancdnx.cn/gc/nxsptdmgychlr_1/index.m3u8
宁夏沙坡头大漠孤烟,http://gcksc.v.kcdnvip.com/gc/nxsptdmgy_1/index.m3u8
宁夏沙坡头大漠孤烟,http://gcbsc.v.live.baishancdnx.cn/gc/nxsptdmgy_1/index.m3u8
丽江古城大研花巷观景,http://gcksc.v.kcdnvip.com/gc/ljgcdyhxgjt_1/index.m3u8
丽江古城大研花巷观景,http://gccncc.v.wscdns.com/gc/ljgcdyhxgjt_1/index.m3u8
丽江古城大研花巷观景,http://gcbsc.v.live.baishancdnx.cn/gc/ljgcdyhxgjt_1/index.m3u8
丽江古城大水车,http://gcksc.v.kcdnvip.com/gc/ljgcdsc_1/index.m3u8
丽江古城大水车,http://gcbsc.v.live.baishancdnx.cn/gc/ljgcdsc_1/index.m3u8
丽江古城万古楼遥望玉龙雪山,http://gcksc.v.kcdnvip.com/gc/ljgcwglytylxs_1/index.m3u8
丽江古城万古楼遥望玉龙雪山,http://gccncc.v.wscdns.com/gc/ljgcwglytylxs_1/index.m3u8
丽江古城万古楼遥望玉龙雪山,http://gcbsc.v.live.baishancdnx.cn/gc/ljgcwglytylxs_1/index.m3u8
狮子山鸟瞰丽江古城,http://gcksc.v.kcdnvip.com/gc/ljgcszsnkgc_1/index.m3u8
狮子山鸟瞰丽江古城,http://gcbsc.v.live.baishancdnx.cn/gc/ljgcszsnkgc_1/index.m3u8
云台山小寨沟,http://gcksc.v.kcdnvip.com/gc/ytsxzg_1/index.m3u8
云台山小寨沟,http://gcbsc.v.live.baishancdnx.cn/gc/ytsxzg_1/index.m3u8
云台山百家岩,http://gcksc.v.kcdnvip.com/gc/ytsbjy_1/index.m3u8
云台山百家岩,http://gcbsc.v.live.baishancdnx.cn/gc/ytsbjy_1/index.m3u8
云台山红石峡,http://gcksc.v.kcdnvip.com/gc/ytshsx_1/index.m3u8
云台山红石峡,http://gccncc.v.wscdns.com/gc/ytshsx_1/index.m3u8
云台山红石峡,http://gcbsc.v.live.baishancdnx.cn/gc/ytshsx_1/index.m3u8
云台山茱萸峰,http://gcksc.v.kcdnvip.com/gc/ytszyf_1/index.m3u8
云台山茱萸峰,http://gccncc.v.wscdns.com/gc/ytszyf_1/index.m3u8
云台山茱萸峰,http://gcbsc.v.live.baishancdnx.cn/gc/ytszyf_1/index.m3u8
雪乡梦幻家园,http://gcksc.v.kcdnvip.com/gc/mdjxxmhjyxj_1/index.m3u8
雪乡梦幻家园,http://gcbsc.v.live.baishancdnx.cn/gc/mdjxxmhjyxj_1/index.m3u8
雪乡梦幻家园观景台,http://gcksc.v.kcdnvip.com/gc/mdjxxmhjygjt_1/index.m3u8
雪乡梦幻家园观景台,http://gccncc.v.wscdns.com/gc/mdjxxmhjygjt_1/index.m3u8
雪乡梦幻家园观景台,http://gcbsc.v.live.baishancdnx.cn/gc/mdjxxmhjygjt_1/index.m3u8
雪乡大石碑,http://gcksc.v.kcdnvip.com/gc/mdjxxdsb_1/index.m3u8
雪乡大石碑,http://gcbsc.v.live.baishancdnx.cn/gc/mdjxxdsb_1/index.m3u8
乌镇蓝印花布,http://gcksc.v.kcdnvip.com/gc/zjwzlyhb_1/index.m3u8
乌镇蓝印花布,http://gccncc.v.wscdns.com/gc/zjwzlyhb_1/index.m3u8
乌镇蓝印花布,http://gcbsc.v.live.baishancdnx.cn/gc/zjwzlyhb_1/index.m3u8
乌镇西市河,http://gcksc.v.kcdnvip.com/gc/zjwzbblh_1/index.m3u8
乌镇西市河,http://gccncc.v.wscdns.com/gc/zjwzbblh_1/index.m3u8
乌镇西市河,http://gcbsc.v.live.baishancdnx.cn/gc/zjwzbblh_1/index.m3u8
乌镇龙形田,http://gcksc.v.kcdnvip.com/gc/zjwzlxt_1/index.m3u8
乌镇龙形田,http://gcbsc.v.live.baishancdnx.cn/gc/zjwzlxt_1/index.m3u8
乌镇全景,http://gcksc.v.kcdnvip.com/gc/zjwzblt_1/index.m3u8
乌镇全景,http://gcbsc.v.live.baishancdnx.cn/gc/zjwzblt_1/index.m3u8
凤凰古城南华山,http://gcksc.v.kcdnvip.com/gc/fhgcdnhs_1/index.m3u8
凤凰古城南华山,http://gcbsc.v.live.baishancdnx.cn/gc/fhgcdnhs_1/index.m3u8
凤凰古城东关门,http://gcksc.v.kcdnvip.com/gc/fhgcdgm_1/index.m3u8
凤凰古城东关门,http://gcbsc.v.live.baishancdnx.cn/gc/fhgcdgm_1/index.m3u8
黄花城水长城01,http://gcksc.v.kcdnvip.com/gc/wgw01_1/index.m3u8
黄花城水长城01,http://gcbsc.v.live.baishancdnx.cn/gc/wgw01_1/index.m3u8
黄花城水长城02,http://gcksc.v.kcdnvip.com/gc/wgw02_1/index.m3u8
黄花城水长城02,http://gcbsc.v.live.baishancdnx.cn/gc/wgw02_1/index.m3u8
黄花城水长城02,http://gctxyc.liveplay.myqcloud.com/gc/wgw02_1/index.m3u8
黄花城水长城03,http://gcksc.v.kcdnvip.com/gc/wgw03_1/index.m3u8
黄花城水长城03,http://gcbsc.v.live.baishancdnx.cn/gc/wgw03_1/index.m3u8
黄花城水长城04,http://gcksc.v.kcdnvip.com/gc/wgw04_1/index.m3u8
黄花城水长城04,http://gcbsc.v.live.baishancdnx.cn/gc/wgw04_1/index.m3u8
鸣沙山,http://gcksc.v.kcdnvip.com/gc/dhyyqst_1/index.m3u8
鸣沙山,http://gcbsc.v.live.baishancdnx.cn/gc/dhyyqst_1/index.m3u8
鸣沙山山门,http://gcksc.v.kcdnvip.com/gc/dhyyqyyq_1/index.m3u8
鸣沙山山门,http://gcbsc.v.live.baishancdnx.cn/gc/dhyyqyyq_1/index.m3u8
月牙泉,http://gcksc.v.kcdnvip.com/gc/dhyyqsm_1/index.m3u8
月牙泉,http://gcbsc.v.live.baishancdnx.cn/gc/dhyyqsm_1/index.m3u8
五彩池,http://gcksc.v.kcdnvip.com/gc/hlwcc_1/index.m3u8
五彩池,http://gccncc.v.wscdns.com/gc/hlwcc_1/index.m3u8
五彩池,http://gcbsc.v.live.baishancdnx.cn/gc/hlwcc_1/index.m3u8
黄龙,http://gcksc.v.kcdnvip.com/gc/hlzycc_1/index.m3u8
黄龙,http://gcbsc.v.live.baishancdnx.cn/gc/hlzycc_1/index.m3u8
望乡台,http://gcksc.v.kcdnvip.com/gc/hlwxt_1/index.m3u8
望乡台,http://gccncc.v.wscdns.com/gc/hlwxt_1/index.m3u8
望乡台,http://gcbsc.v.live.baishancdnx.cn/gc/hlwxt_1/index.m3u8
洗身洞,http://gcksc.v.kcdnvip.com/gc/hlxsd_1/index.m3u8
洗身洞,http://gccncc.v.wscdns.com/gc/hlxsd_1/index.m3u8
洗身洞,http://gcbsc.v.live.baishancdnx.cn/gc/hlxsd_1/index.m3u8
泰山主峰,http://gcksc.v.kcdnvip.com/gc/taishan01_1/index.m3u8
泰山主峰,http://gcbsc.v.live.baishancdnx.cn/gc/taishan01_1/index.m3u8
泰山大观峰,http://gcksc.v.kcdnvip.com/gc/taishan03_1/index.m3u8
泰山大观峰,http://gcbsc.v.live.baishancdnx.cn/gc/taishan03_1/index.m3u8
泰山拱北石,http://gcksc.v.kcdnvip.com/gc/taishan04_1/index.m3u8
泰山拱北石,http://gcbsc.v.live.baishancdnx.cn/gc/taishan04_1/index.m3u8
泰山玉皇顶,http://gcksc.v.kcdnvip.com/gc/taishan06_1/index.m3u8
泰山玉皇顶,http://gccncc.v.wscdns.com/gc/taishan06_1/index.m3u8
泰山玉皇顶,http://gcbsc.v.live.baishancdnx.cn/gc/taishan06_1/index.m3u8
泰山十八盘,http://gcksc.v.kcdnvip.com/gc/taishan05_1/index.m3u8
泰山十八盘,http://gcbsc.v.live.baishancdnx.cn/gc/taishan05_1/index.m3u8
泰山天街,http://gcksc.v.kcdnvip.com/gc/taishan07_1/index.m3u8
泰山天街,http://gccncc.v.wscdns.com/gc/taishan07_1/index.m3u8
泰山天街,http://gcbsc.v.live.baishancdnx.cn/gc/taishan07_1/index.m3u8
泰山经石峪,http://gcksc.v.kcdnvip.com/gc/hkts04_1/index.m3u8
泰山经石峪,http://gcbsc.v.live.baishancdnx.cn/gc/hkts04_1/index.m3u8
泰山望人松,http://gcksc.v.kcdnvip.com/gc/taishan02_1/index.m3u8
泰山望人松,http://gcbsc.v.live.baishancdnx.cn/gc/taishan02_1/index.m3u8
泰山龙潭水库,http://gcksc.v.kcdnvip.com/gc/hkts06_1/index.m3u8
泰山龙潭水库,http://gccncc.v.wscdns.com/gc/hkts06_1/index.m3u8
泰山龙潭水库,http://gcbsc.v.live.baishancdnx.cn/gc/hkts06_1/index.m3u8
泰山南天门,http://gcksc.v.kcdnvip.com/gc/hkts07_1/index.m3u8
泰山南天门,http://gcbsc.v.live.baishancdnx.cn/gc/hkts07_1/index.m3u8
泰山白云亭悬崖,http://gcksc.v.kcdnvip.com/gc/hkts02_1/index.m3u8
泰山白云亭悬崖,http://gcbsc.v.live.baishancdnx.cn/gc/hkts02_1/index.m3u8
泰山扇子崖,http://gcksc.v.kcdnvip.com/gc/hkts08_1/index.m3u8
泰山扇子崖,http://gcbsc.v.live.baishancdnx.cn/gc/hkts08_1/index.m3u8
泰山太平岭,http://gcksc.v.kcdnvip.com/gc/hkts09_1/index.m3u8
泰山太平岭,http://gccncc.v.wscdns.com/gc/hkts09_1/index.m3u8
泰山太平岭,http://gcbsc.v.live.baishancdnx.cn/gc/hkts09_1/index.m3u8
泰山碧霞祠,http://gcksc.v.kcdnvip.com/gc/hkts03_1/index.m3u8
泰山碧霞祠,http://gcbsc.v.live.baishancdnx.cn/gc/hkts03_1/index.m3u8
泰山玉皇顶东,http://gcksc.v.kcdnvip.com/gc/hkts10_1/index.m3u8
泰山玉皇顶东,http://gccncc.v.wscdns.com/gc/hkts10_1/index.m3u8
泰山玉皇顶东,http://gcbsc.v.live.baishancdnx.cn/gc/hkts10_1/index.m3u8
泰山玉皇顶西,http://gcksc.v.kcdnvip.com/gc/hkts11_1/index.m3u8
泰山玉皇顶西,http://gcbsc.v.live.baishancdnx.cn/gc/hkts11_1/index.m3u8
黄山卧云峰,http://gcksc.v.kcdnvip.com/gc/hswlf_1/index.m3u8
黄山卧云峰,http://gcbsc.v.live.baishancdnx.cn/gc/hswlf_1/index.m3u8
黄山始信新道,http://gcksc.v.kcdnvip.com/gc/hsyg_1/index.m3u8
黄山始信新道,http://gccncc.v.wscdns.com/gc/hsyg_1/index.m3u8
黄山始信新道,http://gcbsc.v.live.baishancdnx.cn/gc/hsyg_1/index.m3u8
黄山梦笔生花,http://gcksc.v.kcdnvip.com/gc/hsmbsh_1/index.m3u8
黄山梦笔生花,http://gcbsc.v.live.baishancdnx.cn/gc/hsmbsh_1/index.m3u8
黄山排云亭,http://gcksc.v.kcdnvip.com/gc/hspyt_1/index.m3u8
黄山排云亭,http://gcbsc.v.live.baishancdnx.cn/gc/hspyt_1/index.m3u8
黄山平天矼,http://gcksc.v.kcdnvip.com/gc/hsptgz_1/index.m3u8
黄山平天矼,http://gccncc.v.wscdns.com/gc/hsptgz_1/index.m3u8
黄山平天矼,http://gcbsc.v.live.baishancdnx.cn/gc/hsptgz_1/index.m3u8
黄山飞来石,http://gcksc.v.kcdnvip.com/gc/hsptgy_1/index.m3u8
黄山飞来石,http://gccncc.v.wscdns.com/gc/hsptgy_1/index.m3u8
黄山飞来石,http://gcbsc.v.live.baishancdnx.cn/gc/hsptgy_1/index.m3u8
黄山光明顶,http://gcksc.v.kcdnvip.com/gc/hsgmd_1/index.m3u8
黄山光明顶,http://gccncc.v.wscdns.com/gc/hsgmd_1/index.m3u8
黄山光明顶,http://gcbsc.v.live.baishancdnx.cn/gc/hsgmd_1/index.m3u8
黄山,http://gcksc.v.kcdnvip.com/gc/ahhs01_1/index.m3u8
黄山,http://gcbsc.v.live.baishancdnx.cn/gc/ahhs01_1/index.m3u8
福建宁德太姥山景区,http://gcksc.v.kcdnvip.com/gc/tms01_1/index.m3u8
福建宁德太姥山景区,http://gcbsc.v.live.baishancdnx.cn/gc/tms01_1/index.m3u8
陕西洋县国宝朱鹮01,http://gcksc.v.kcdnvip.com/gc/zhhd01_1/index.m3u8
陕西洋县国宝朱鹮01,http://gccncc.v.wscdns.com/gc/zhhd01_1/index.m3u8
陕西洋县国宝朱鹮01,http://gcbsc.v.live.baishancdnx.cn/gc/zhhd01_1/index.m3u8
陕西洋县国宝朱鹮02,http://gcksc.v.kcdnvip.com/gc/zh02_1/index.m3u8
陕西洋县国宝朱鹮02,http://gcbsc.v.live.baishancdnx.cn/gc/zh02_1/index.m3u8
陕西洋县国宝朱鹮03,http://gcksc.v.kcdnvip.com/gc/zh03_1/index.m3u8
陕西洋县国宝朱鹮03,http://gccncc.v.wscdns.com/gc/zh03_1/index.m3u8
陕西洋县国宝朱鹮03,http://gcbsc.v.live.baishancdnx.cn/gc/zh03_1/index.m3u8
陕西洋县国宝朱鹮04,http://gcksc.v.kcdnvip.com/gc/zh04_1/index.m3u8
陕西洋县国宝朱鹮04,http://gccncc.v.wscdns.com/gc/zh04_1/index.m3u8
陕西洋县国宝朱鹮04,http://gcbsc.v.live.baishancdnx.cn/gc/zh04_1/index.m3u8
安徽黟县西递半山亭,http://gcksc.v.kcdnvip.com/gc/yxxdbst_1/index.m3u8
安徽黟县西递半山亭,http://gcbsc.v.live.baishancdnx.cn/gc/yxxdbst_1/index.m3u8
安徽黟县西递牌坊,http://gcksc.v.kcdnvip.com/gc/yxxdpf_1/index.m3u8
安徽黟县西递牌坊,http://gccncc.v.wscdns.com/gc/yxxdpf_1/index.m3u8
安徽黟县西递牌坊,http://gcbsc.v.live.baishancdnx.cn/gc/yxxdpf_1/index.m3u8
安徽黟县宏村月沼,http://gcksc.v.kcdnvip.com/gc/yxhcyz_1/index.m3u8
安徽黟县宏村月沼,http://gccncc.v.wscdns.com/gc/yxhcyz_1/index.m3u8
安徽黟县宏村月沼,http://gcbsc.v.live.baishancdnx.cn/gc/yxhcyz_1/index.m3u8
安徽黟县芦村远眺,http://gcksc.v.kcdnvip.com/gc/yxlcyt_1/index.m3u8
安徽黟县芦村远眺,http://gcbsc.v.live.baishancdnx.cn/gc/yxlcyt_1/index.m3u8
深圳世界之窗文化主题公园,http://gcksc.v.kcdnvip.com/gc/sjzc01_1/index.m3u8
深圳世界之窗文化主题公园,http://gccncc.v.wscdns.com/gc/sjzc01_1/index.m3u8
深圳世界之窗文化主题公园,http://gcbsc.v.live.baishancdnx.cn/gc/sjzc01_1/index.m3u8
八达岭长城南七楼,http://gcksc.v.kcdnvip.com/gc/bgws7_1/index.m3u8
八达岭长城南七楼,http://gcbsc.v.live.baishancdnx.cn/gc/bgws7_1/index.m3u8
八达岭长城北十楼,http://gcksc.v.kcdnvip.com/gc/bgwn10_1/index.m3u8
八达岭长城北十楼,http://gcbsc.v.live.baishancdnx.cn/gc/bgwn10_1/index.m3u8
中央电视塔东,http://gcksc.v.kcdnvip.com/gc/ztd_1/index.m3u8
中央电视塔东,http://gcbsc.v.live.baishancdnx.cn/gc/ztd_1/index.m3u8
中央电视塔南,http://gcksc.v.kcdnvip.com/gc/ztn_1/index.m3u8
中央电视塔南,http://gcbsc.v.live.baishancdnx.cn/gc/ztn_1/index.m3u8
中央电视塔北,http://gcksc.v.kcdnvip.com/gc/ztb_1/index.m3u8
中央电视塔北,http://gcbsc.v.live.baishancdnx.cn/gc/ztb_1/index.m3u8
恒山悬空寺全景,http://gcksc.v.kcdnvip.com/gc/hsxksqj_1/index.m3u8
恒山悬空寺全景,http://gccncc.v.wscdns.com/gc/hsxksqj_1/index.m3u8
恒山悬空寺全景,http://gcbsc.v.live.baishancdnx.cn/gc/hsxksqj_1/index.m3u8
恒宗,http://gcksc.v.kcdnvip.com/gc/hsxkssqdzrqj_1/index.m3u8
恒宗,http://gccncc.v.wscdns.com/gc/hsxkssqdzrqj_1/index.m3u8
恒宗,http://gcbsc.v.live.baishancdnx.cn/gc/hsxkssqdzrqj_1/index.m3u8
黄果树银链坠潭瀑布,http://gcksc.v.kcdnvip.com/gc/hgsylztpb_1/index.m3u8
黄果树银链坠潭瀑布,http://gccncc.v.wscdns.com/gc/hgsylztpb_1/index.m3u8
黄果树银链坠潭瀑布,http://gcbsc.v.live.baishancdnx.cn/gc/hgsylztpb_1/index.m3u8
黄果树六角亭瀑布,http://gcksc.v.kcdnvip.com/gc/hgsspzxdpb_1/index.m3u8
黄果树六角亭瀑布,http://gccncc.v.wscdns.com/gc/hgsspzxdpb_1/index.m3u8
黄果树六角亭瀑布,http://gcbsc.v.live.baishancdnx.cn/gc/hgsspzxdpb_1/index.m3u8
天涯鸟瞰,http://gcksc.v.kcdnvip.com/gc/tyhjtynl_1/index.m3u8
天涯鸟瞰,http://gcbsc.v.live.baishancdnx.cn/gc/tyhjtynl_1/index.m3u8
天涯石,http://gcksc.v.kcdnvip.com/gc/tyhjtys_1/index.m3u8
天涯石,http://gccncc.v.wscdns.com/gc/tyhjtys_1/index.m3u8
天涯石,http://gcbsc.v.live.baishancdnx.cn/gc/tyhjtys_1/index.m3u8
南天一柱,http://gcksc.v.kcdnvip.com/gc/tyhjntyz_1/index.m3u8
南天一柱,http://gccncc.v.wscdns.com/gc/tyhjntyz_1/index.m3u8
南天一柱,http://gcbsc.v.live.baishancdnx.cn/gc/tyhjntyz_1/index.m3u8
日月石,http://gcksc.v.kcdnvip.com/gc/tyhjrys_1/index.m3u8
日月石,http://gccncc.v.wscdns.com/gc/tyhjrys_1/index.m3u8
日月石,http://gcbsc.v.live.baishancdnx.cn/gc/tyhjrys_1/index.m3u8
平山湖大峡谷石林,http://gcksc.v.kcdnvip.com/gc/pshdxg02_1/index.m3u8
平山湖大峡谷石林,http://gccncc.v.wscdns.com/gc/pshdxg02_1/index.m3u8
平山湖大峡谷石林,http://gcbsc.v.live.baishancdnx.cn/gc/pshdxg02_1/index.m3u8
桂林象山公园,http://gcksc.v.kcdnvip.com/gc/glxs01_1/index.m3u8
桂林象山公园,http://gcbsc.v.live.baishancdnx.cn/gc/glxs01_1/index.m3u8
六盘山红军长征景区,http://gcksc.v.kcdnvip.com/gc/lpsgmjng01_1/index.m3u8
六盘山红军长征景区,http://gcbsc.v.live.baishancdnx.cn/gc/lpsgmjng01_1/index.m3u8
华山,http://gcksc.v.kcdnvip.com/gc/hkhs01_1/index.m3u8
华山,http://gcbsc.v.live.baishancdnx.cn/gc/hkhs01_1/index.m3u8
贵州省兴义市万峰林,http://gcksc.v.kcdnvip.com/gc/xywfl_1/index.m3u8
贵州省兴义市万峰林,http://gcbsc.v.live.baishancdnx.cn/gc/xywfl_1/index.m3u8
贵州省兴义市马岭河峡谷,http://gcksc.v.kcdnvip.com/gc/xymlh_1/index.m3u8
贵州省兴义市马岭河峡谷,http://gcbsc.v.live.baishancdnx.cn/gc/xymlh_1/index.m3u8
贵州省贞丰市双乳峰景区,http://gcksc.v.kcdnvip.com/gc/xysrf_1/index.m3u8
贵州省贞丰市双乳峰景区,http://gccncc.v.wscdns.com/gc/xysrf_1/index.m3u8
贵州省贞丰市双乳峰景区,http://gcbsc.v.live.baishancdnx.cn/gc/xysrf_1/index.m3u8
云南大理崇圣寺三塔中景,http://gcksc.v.kcdnvip.com/gc/dlst03_1/index.m3u8
云南大理崇圣寺三塔中景,http://gccncc.v.wscdns.com/gc/dlst03_1/index.m3u8
云南大理崇圣寺三塔中景,http://gcbsc.v.live.baishancdnx.cn/gc/dlst03_1/index.m3u8
云南大理崇圣寺三塔湖面,http://gcksc.v.kcdnvip.com/gc/dlst02_1/index.m3u8
云南大理崇圣寺三塔湖面,http://gccncc.v.wscdns.com/gc/dlst02_1/index.m3u8
云南大理崇圣寺三塔湖面,http://gcbsc.v.live.baishancdnx.cn/gc/dlst02_1/index.m3u8
云南大理崇圣寺三塔远景,http://gcksc.v.kcdnvip.com/gc/dlst01_1/index.m3u8
云南大理崇圣寺三塔远景,http://gccncc.v.wscdns.com/gc/dlst01_1/index.m3u8
云南大理崇圣寺三塔远景,http://gcbsc.v.live.baishancdnx.cn/gc/dlst01_1/index.m3u8
广西桂林漓江景区,http://gcksc.v.kcdnvip.com/gc/gllj01_1/index.m3u8
广西桂林漓江景区,http://gccncc.v.wscdns.com/gc/gllj01_1/index.m3u8
广西桂林漓江景区,http://gcbsc.v.live.baishancdnx.cn/gc/gllj01_1/index.m3u8
青岛崂山双福,http://gcksc.v.kcdnvip.com/gc/qdls03_1/index.m3u8
青岛崂山双福,http://gcbsc.v.live.baishancdnx.cn/gc/qdls03_1/index.m3u8
青岛崂山太清,http://gcksc.v.kcdnvip.com/gc/qdls04_1/index.m3u8
青岛崂山太清,http://gccncc.v.wscdns.com/gc/qdls04_1/index.m3u8
青岛崂山太清,http://gcbsc.v.live.baishancdnx.cn/gc/qdls04_1/index.m3u8
青岛崂山灵旗峰,http://gcksc.v.kcdnvip.com/gc/qdls01_1/index.m3u8
青岛崂山灵旗峰,http://gcbsc.v.live.baishancdnx.cn/gc/qdls01_1/index.m3u8
青岛崂山八水河,http://gcksc.v.kcdnvip.com/gc/qdls02_1/index.m3u8
青岛崂山八水河,http://gcbsc.v.live.baishancdnx.cn/gc/qdls02_1/index.m3u8
三亚南山文化旅游区海上观音,http://gcksc.v.kcdnvip.com/gc/syns01_1/index.m3u8
三亚南山文化旅游区海上观音,http://gccncc.v.wscdns.com/gc/syns01_1/index.m3u8
三亚南山文化旅游区海上观音,http://gcbsc.v.live.baishancdnx.cn/gc/syns01_1/index.m3u8
仙都风景区,http://gcksc.v.kcdnvip.com/gc/xdfjq01_1/index.m3u8
仙都风景区,http://gcbsc.v.live.baishancdnx.cn/gc/xdfjq01_1/index.m3u8
仙都风景区,http://gctxyc.liveplay.myqcloud.com/gc/xdfjq01_1/index.m3u8
宁夏黄河大峡谷,http://gcksc.v.kcdnvip.com/gc/hhdxg01_1/index.m3u8
宁夏黄河大峡谷,http://gccncc.v.wscdns.com/gc/hhdxg01_1/index.m3u8
宁夏黄河大峡谷,http://gcbsc.v.live.baishancdnx.cn/gc/hhdxg01_1/index.m3u8
张掖七彩丹霞,http://gcksc.v.kcdnvip.com/gc/zyqcdx01_1/index.m3u8
张掖七彩丹霞,http://gcbsc.v.live.baishancdnx.cn/gc/zyqcdx01_1/index.m3u8
嵩山少林寺广场,http://gcksc.v.kcdnvip.com/gc/zsslsgc_1/index.m3u8
嵩山少林寺广场,http://gcbsc.v.live.baishancdnx.cn/gc/zsslsgc_1/index.m3u8
婺源01,http://gcksc.v.kcdnvip.com/gc/wygjt1_1/index.m3u8
婺源01,http://gccncc.v.wscdns.com/gc/wygjt1_1/index.m3u8
婺源01,http://gcbsc.v.live.baishancdnx.cn/gc/wygjt1_1/index.m3u8
神农架金丝猴01,http://gcksc.v.kcdnvip.com/gc/jshhd01_1/index.m3u8
神农架金丝猴01,http://gccncc.v.wscdns.com/gc/jshhd01_1/index.m3u8
神农架金丝猴01,http://gcbsc.v.live.baishancdnx.cn/gc/jshhd01_1/index.m3u8
都江堰鱼嘴,http://gcksc.v.kcdnvip.com/gc/djyqyl1_1/index.m3u8
都江堰鱼嘴,http://gccncc.v.wscdns.com/gc/djyqyl1_1/index.m3u8
都江堰鱼嘴,http://gcbsc.v.live.baishancdnx.cn/gc/djyqyl1_1/index.m3u8
丹霞山丹梯铁锁,http://gcksc.v.kcdnvip.com/gc/dxsdtts_1/index.m3u8
丹霞山丹梯铁锁,http://gcbsc.v.live.baishancdnx.cn/gc/dxsdtts_1/index.m3u8
丹霞山韶音亭,http://gcksc.v.kcdnvip.com/gc/dxssyt_1/index.m3u8
丹霞山韶音亭,http://gcbsc.v.live.baishancdnx.cn/gc/dxssyt_1/index.m3u8
云南红河哈尼梯田多依树景点,http://gcksc.v.kcdnvip.com/gc/hnttdysjd_1/index.m3u8
云南红河哈尼梯田多依树景点,http://gcbsc.v.live.baishancdnx.cn/gc/hnttdysjd_1/index.m3u8
云南红河哈尼梯田普高老寨,http://gcksc.v.kcdnvip.com/gc/hnttpgsz_1/index.m3u8
云南红河哈尼梯田普高老寨,http://gcbsc.v.live.baishancdnx.cn/gc/hnttpgsz_1/index.m3u8
云南红河哈尼梯田老虎嘴,http://gcksc.v.kcdnvip.com/gc/hnttlhzjd_1/index.m3u8
云南红河哈尼梯田老虎嘴,http://gcbsc.v.live.baishancdnx.cn/gc/hnttlhzjd_1/index.m3u8
江西龙虎山中间水泡,http://gcksc.v.kcdnvip.com/gc/lhszjsp_1/index.m3u8
江西龙虎山中间水泡,http://gcbsc.v.live.baishancdnx.cn/gc/lhszjsp_1/index.m3u8
江西龙虎山山涧栈道,http://gcksc.v.kcdnvip.com/gc/lhssjzd_1/index.m3u8
江西龙虎山山涧栈道,http://gccncc.v.wscdns.com/gc/lhssjzd_1/index.m3u8
江西龙虎山山涧栈道,http://gcbsc.v.live.baishancdnx.cn/gc/lhssjzd_1/index.m3u8
乐山大佛全景,http://gcksc.v.kcdnvip.com/gc/lsdfgfl_1/index.m3u8
乐山大佛全景,http://gccncc.v.wscdns.com/gc/lsdfgfl_1/index.m3u8
乐山大佛全景,http://gcbsc.v.live.baishancdnx.cn/gc/lsdfgfl_1/index.m3u8
福建武夷山玉女峰,http://gcksc.v.kcdnvip.com/gc/wysynf_1/index.m3u8
福建武夷山玉女峰,http://gccncc.v.wscdns.com/gc/wysynf_1/index.m3u8
福建武夷山玉女峰,http://gcbsc.v.live.baishancdnx.cn/gc/wysynf_1/index.m3u8
为天使护航,http://gcksc.v.kcdnvip.com/gc/zsslsfwsgz_1/index.m3u8
为天使护航,http://gcbsc.v.live.baishancdnx.cn/gc/zsslsfwsgz_1/index.m3u8
北京,#genre#
北京,http://39.135.32.24:6610/000000001000/1000000001000017156/1.m3u8?xtkg?zbeid
北京新闻,http://live.funhillrm.com/5/sd/live.m3u8?zbeid
北京青年,http://111.6.126.218/hsplay-360.v.btime.com/live_btime/btv_sn_20170706_s8/index.m3u8?zbeid
北京生活,http://111.6.126.218/hsplay-360.v.btime.com/live_btime/btv_sn_20170706_s7/index.m3u8?zbeid
北京科教,http://71pull.btvcloud.com/brtv2021channel/2021kjchannellive3.m3u8?zbeid
北京财经,http://111.6.126.218/hsplay-360.v.btime.com/live_btime/btv_sn_20170706_s5/index.m3u8?zbeid
北京影院,http://111.6.126.218/hsplay-360.v.btime.com/live_btime/btv_sn_20170706_s4/index.m3u8?zbeid
北京IPTV萌宠TV,http://39.134.134.84/otttv.bj.chinamobile.com/PLTV/88888888/224/3221226555/index.m3u8?servicetype=1&icpid=&accounttype=1&limitflux=-1&limitdur=-1&GuardEncType=2&accountinfo=3QGHZfaujB8rRCsAsCvwpxxlHr4QY7xmzJA0CWZ2m2oFrdR%2B0WqiDAHoOrKmOBjJo1DAVyGMxV75D0k9A8UW52%2FrO%2F0g1FiOsgmHLskIhGej57NNTIcVyR%2FC8%2FqFakBOSDD3mErwuVWF5DqfHIW%2FMQ%3D%3D%3A20211105223205%2C10000100000000050000000003887495%2CF6D75A298389DD1E7C3B7D397327CA23%2C-1%2C0%2C1%2C%2C%2C2%2C%2C%2CEND?zbeid
北京IPTV淘baby,http://39.134.134.89/otttv.bj.chinamobile.com/PLTV/88888888/224/3221226554/index.m3u8?servicetype=1&icpid=&accounttype=1&limitflux=-1&limitdur=-1&GuardEncType=2&accountinfo=3QGHZfaujB8rRCsAsCvwpxxlHr4QY7xmzJA0CWZ2m2oFrdR%2B0WqiDAHoOrKmOBjJo1DAVyGMxV75D0k9A8UW52%2FrO%2F0g1FiOsgmHLskIhGej57NNTIcVyR%2FC8%2FqFakBOBGhARyizMEPlAOe9nM1b5Q%3D%3D%3A20211105223205%2C10000100000000050000000003887496%2CF6D75A298389DD1E7C3B7D397327CA23%2C-1%2C0%2C1%2C%2C%2C2%2C%2C%2CEND?zbeid
北京IPTV淘电影,http://39.134.135.81/otttv.bj.chinamobile.com/PLTV/88888888/224/3221226552/index.m3u8?servicetype=1&icpid=88888888&accounttype=1&limitflux=-1&limitdur=-1&GuardEncType=2&accountinfo=OMDVq6b4lEslJm1UnEjrD67bT%2BdBi%2FstmegbNVdYPJSeBmMWSNPD7Wrrjb2ZDi7Um5UxWiZupPnRfM4wLeS74RrZe%2BRE99EyWRk%2B%2Fh2ZwKeBjD%2BfZ9Mz5UmtqpVNJkd9dPTPolsaS4II0YdOjxvNng%3D%3D%3A20201004145232%2C60D21CCCB8A5%2C112.64.2.198%2C20201004145232%2C10000100000000050000000003887498%2CA23CC1CD0AC72C120DCED3BED1AC1863%2C-1%2C0%2C1%2C-1%2C%2C2%2C2201300%2C17%2C%2C2%2CEND?zbeid
北京IPTV淘剧场,http://39.134.134.84/otttv.bj.chinamobile.com/PLTV/88888888/224/3221226553/index.m3u8?servicetype=1&icpid=&accounttype=1&limitflux=-1&limitdur=-1&GuardEncType=2&accountinfo=3QGHZfaujB8rRCsAsCvwpxxlHr4QY7xmzJA0CWZ2m2oFrdR%2B0WqiDAHoOrKmOBjJo1DAVyGMxV75D0k9A8UW52%2FrO%2F0g1FiOsgmHLskIhGej57NNTIcVyR%2FC8%2FqFakBOatI%2F3LD77f6VT%2BVI0tODRw%3D%3D%3A20211105223205%2C10000100000000050000000003887497%2CF6D75A298389DD1E7C3B7D397327CA23%2C-1%2C0%2C1%2C%2C%2C2%2C%2C%2CEND?zbeid
北京IPTV淘娱乐,http://39.134.134.88/otttv.bj.chinamobile.com/PLTV/88888888/224/3221226551/index.m3u8?servicetype=1&icpid=&accounttype=1&limitflux=-1&limitdur=-1&GuardEncType=2&accountinfo=3QGHZfaujB8rRCsAsCvwpxxlHr4QY7xmzJA0CWZ2m2oFrdR%2B0WqiDAHoOrKmOBjJo1DAVyGMxV75D0k9A8UW52%2FrO%2F0g1FiOsgmHLskIhGej57NNTIcVyR%2FC8%2FqFakBOtChdQBj46BMs%2FmbjOB0PZw%3D%3D%3A20211105223205%2C10000100000000050000000003887499%2CF6D75A298389DD1E7C3B7D397327CA23%2C-1%2C0%2C1%2C%2C%2C2%2C%2C%2CEND?zbeid
石景山有线,http://live.sjsrm.com/bjsjs/sd/live.m3u8?zbeid
房山无线频道,http://live.funhillrm.com/2/sd/live.m3u8?zbeid
清华大学电视台,http://live.cic.tsinghua.edu.cn/hls/tsinghuatv.m3u8?zbeid
广东,#genre#
广东,http://39.135.32.24:6610/000000001000/1000000001000028357/1.m3u8?xtkg?zguangd
南方卫视,http://39.135.32.24:6610/000000001000/1000000002000011619/1.m3u8?xtkg?zguangd
广东珠江,http://39.135.32.24:6610/000000001000/1000000004000011655/1.m3u8?xtkg?zguangd
点掌财经,http://cclive2.aniu.tv/live/anzb.m3u8?zguangd
广东文化,https://glive.grtn.cn/live/wenhua_test0203.m3u8?auth_key=1617289309-0-0-7b2730980c8860963374597c20ad3935?zguangd
广东文化,https://glive.grtn.cn/live/wenhua_test0203.m3u8?auth_key=1612881417-0-0-bc7ddba066481bc805fc1e800654e721?zguangd
生活HD,http://hls-ott-zhibo.wasu.tv/live/452/index.m3u8?zguangd
广州法制,http://ye23.win/iptv/gztv.php?id=fazhi?zguangd
广州竞赛,http://ye23.win/iptv/gztv.php?id=jingsai?zguangd
南国都市,http://ye23.win/iptv/gztv.php?id=shenghuo?zguangd
深圳东部,https://lglivepull.sznews.com/live/2646.m3u8?zguangd
汕头综合,http://dslive.grtn.cn/stzh/sd/live.m3u8?zguangd 
汕头综合,http://dslive.grtn.cn/stzh/sd/live.m3u8?_upt=61db0df01642739502?zguangd
揭阳综合,http://dslive.grtn.cn/jyzh/sd/live.m3u8?zguangd
珠海综合,http://dslive.grtn.cn/zhzh/sd/live.m3u8?zguangd
蛇口,http://218.17.99.211:82/hls/d4encs75.m3u8?zguangd
蛇口,http://218.17.99.211:5080/hls/ttsw6ccn.m3u8?zguangd
韶关综合,https://www.sgmsw.cn/videos/tv/201805/1308/SB05RIYZOU8JR418AUQOF62CAJQ08D0E/hls/live.m3u8?zguangd
韶关新闻,http://dslive.grtn.cn/sgxwzhHD/sd/live.m3u8?zguangd
韶关公共,https://www.sgmsw.cn/videos/tv/201805/1308/9P424TC5M000AFO13CXK6GN6BOA889D2/hls/live.m3u8?zguangd
汕尾综合,http://dslive.grtn.cn/swzh/sd/live.m3u8?zguangd
清新综合,http://hls.wiseqx.com/live/qxzh.m3u8?zguangd
平远综合,https://p2.weizan.cn/1033266991/615876688276112015/live.m3u8?zguangd
惠州新闻综合,http://dslive.grtn.cn/hzzh/sd/live.m3u8?zguangd
阳江1,https://live.yjtvw.com:8081/live/smil:yjtv1.smil/chunklist_w1166501356_b928000.m3u8?zguangd
阳江1,https://live.yjtvw.com:8081/live/smil:yjtv1.smil/chunklist_b3628000.m3u8?zguangd
阳江2,https://live.yjtvw.com:8081/live/smil:yjtv2.smil/chunklist_w551261166_b928000.m3u8?zguangd
阳江2,https://live.yjtvw.com:8081/live/smil:yjtv2.smil/chunklist_b3628000.m3u8?zguangd
肇庆综合,http://dslive.grtn.cn/zqzh/sd/live.m3u8?_upt=0ca3e6411630330482?zguangd
丰顺综合,https://p2.weizan.cn/1033266991/776920781637802678/live.m3u8?zguangd
江门综合,http://dslive.grtn.cn/jmzh/sd/live.m3u8?zguangd
电白综合,http://gddb.chinashadt.com:1935/live/video1.stream_360p/playlist.m3u8?zguangd
电白视窗,http://gddb.chinashadt.com:1935/live/video2.stream_360p/playlist.m3u8?zguangd
五华综合,http://p2.weizan.cn/2100036413/734648609627739039/live.m3u8?zguangd
阳江综合,https://live.yjtvw.com:8081/live/smil:yjtv1.smil/chunklist_b1152000.m3u8?zguangd
阳江公共,https://live.yjtvw.com:8081/live/smil:yjtv2.smil/chunklist_b1152000.m3u8?zguangd
云浮综合,https://pili-live-hdl-ysx.tianma3600.com/gdyf/gdyfzh.m3u8?zguangd
云浮综合,http://dslive.grtn.cn/yfzh/sd/live.m3u8?zguangd
云浮公共,https://pili-live-hdl-ysx.tianma3600.com/gdyf/gdyfgg.m3u8?zguangd
上海,#genre#
东方,http://39.135.32.10:6610/000000001000/HD-4000k-1080P-dongfangstv/1.m3u8?IASHttpSessionId=OTT?zshangd
东方影院,http://183.207.255.188/live/program/live/dsjpdhd/4000000/mnf.m3u8?zshangd
新视觉体育,http://183.207.255.188/live/program/live/xsjhd/4000000/mnf.m3u8?zshangd
魅力足球体育,http://183.207.255.188/live/program/live/mlyyhd/4000000/mnf.m3u8?zshangd
欢笑剧场,http://183.207.255.188/live/program/live/hxjchd/4000000/mnf.m3u8?zshangd
都市剧场,http://183.207.255.188/live/program/live/dsjchd/4000000/mnf.m3u8?zshangd
法治天地,http://183.207.255.188/live/program/live/fztd/1300000/mnf.m3u8?zshangd
上海都市,http://183.207.255.188/live/program/live/ylpdhd/4000000/mnf.m3u8?zshangd
上海教育,http://183.207.255.188/live/program/live/setv/1300000/mnf.m3u8?zshangd
游戏风云,http://183.207.255.188/live/program/live/yxfyhd/4000000/mnf.m3u8?zshangd
极速汽车体育,http://183.207.255.188/live/program/live/jsqchd/4000000/mnf.m3u8?zshangd
生活时尚,http://183.207.255.188/live/program/live/shsshd/4000000/mnf.m3u8?zshangd
全纪实,http://183.207.255.188/live/program/live/qjshd/4000000/mnf.m3u8?zshangd
幸福彩,http://183.207.255.188/live/program/live/xfchd/4000000/mnf.m3u8?zshangd
上海新闻,http://140.207.241.3:8080/live/program/live/xwzhhd/4000000/d1.m3u8?zshangd
动漫秀场,http://183.207.255.188/live/program/live/dmxchd/4000000/mnf.m3u8?zshangd
金色频道,http://183.207.255.188/live/program/live/jingsepd/1300000/mnf.m3u8?zshangd
七彩戏剧,http://183.207.255.188/live/program/live/qcxj/1300000/mnf.m3u8?zshangd
东方财经,http://183.207.255.188/live/program/live/dfcj/1300000/mnf.m3u8?zshangd
纪实人文,http://183.207.255.188/live/program/live/jspdhd/4000000/mnf.m3u8?zshangd
哈哈炫动,http://183.207.255.188/live/program/live/hhxdhd/4000000/mnf.m3u8?zshangd
上视外语,http://183.207.255.188/live/program/live/wypdhd/4000000/mnf.m3u8?zshangd
劲爆体育,http://140.207.241.3:8080/live/program/live/jbtyhd/4000000/d1.m3u8?zshangd
幸福彩,http://117.148.179.163/PLTV/88888888/224/3221231730/index.m3u8?zshangd
嘉定电视台,https://pili-live-hls.wdit.com.cn/wditlive/15472c98517744b994e85c9c60cc93cf6a3b.m3u8?zshangd
天水公共,http://stream.tstv.cn/tstc938Yn3ggpd/playlist.m3u8?shanghai
崇明电视台,https://pili-live-hls.wdit.com.cn/wditlive/c038f4fafbdf4f97ba74c74ad67259b931ee.m3u8?zshangd
金山电视台,http://live.mudu.tv/watch/4zbn2f.m3u8?zshangd
湖南,#genre#
湖南,http://39.135.32.24:6610/000000001000/1000000001000009115/1.m3u8?xtkg?zhund
金鹰纪实,http://39.135.32.24:6610/000000001000/1000000002000011724/1.m3u8?xtkg?zhund
金鹰纪实,http://124.232.231.246:6610/000000001001/201600020008/index.m3u8?A=&IASHttpSessionId=OTT?zhund
湖南国际,http://124.232.231.246:6610/000000001001/201600010001/index.m3u8?A=&IASHttpSessionId=OTT?zhund
湖南国际,http://124.232.231.246:6610/000000001001/201600020001/index.m3u8?A=&IASHttpSessionId=OTT?zhund
湖南经视,http://124.232.231.246:6610/000000001001/201600010002/index.m3u8?A=&IASHttpSessionId=OTT?zhund
湖南经视,http://124.232.231.246:6610/000000001001/201600020002/index.m3u8?A=&IASHttpSessionId=OTT?zhund
湖南电视剧,http://124.232.231.246:6610/000000001001/201600010006/index.m3u8?A=&IASHttpSessionId=OTT?zhund
湖南电视剧,http://124.232.231.246:6610/000000001001/201600020006/index.m3u8?A=&IASHttpSessionId=OTT?zhund
湖南娱乐,http://124.232.231.246:6610/000000001001/201600010004/index.m3u8?A=&IASHttpSessionId=OTT?zhund
湖南娱乐,http://124.232.231.246:6610/000000001001/201600020004/index.m3u8?A=&IASHttpSessionId=OTT?zhund
湖南公共,http://124.232.231.246:6610/000000001001/201600010007/index.m3u8?A=&IASHttpSessionId=OTT?zhund
湖南公共,http://124.232.231.246:6610/000000001001/201600020007/index.m3u8?A=&IASHttpSessionId=OTT?zhund
湖南都市,http://124.232.231.246:6610/000000001001/201600010003/index.m3u8?A=&IASHttpSessionId=OTT?zhund
湖南都市,http://124.232.231.246:6610/000000001001/201600020003/index.m3u8?A=&IASHttpSessionId=OTT?zhund
金鹰纪实,http://39.135.32.10:6610/000000001000/SD-4000k-576P-jinyingjs/1.m3u8?IASHttpSessionId=OTT?zhund
金鹰纪实,http://39.135.138.58:18890/ysten-businessmobile/live/SD-4000k-576P-jinyingjs/1.m3u8?zhund
金鹰纪实,http://124.232.231.246:6610/000000001001/201600010008/index.m3u8?A=&IASHttpSessionId=OTT?zhund
湖南电影,http://124.232.231.246:6610/000000001001/201600020005/index.m3u8?A=&IASHttpSessionId=OTT?zhund
湖南电影,http://124.232.231.246:6610/000000001001/201600010005/index.m3u8?A=&IASHttpSessionId=OTT?zhund
湖南电影,rtmp://fms.yyrtv.com/livepkgr/hndy210130?zhund
湖南电影,http://fms.yyrtv.com:82/hls-live/livepkgr/_definst_/liveevent/hndy210130.m3u8?zhund
湘潭新闻综合,http://live.hnxttv.com:9601/live/xwzh/800K/tzwj_video.m3u8?zhund
湘潭公共频道,http://live.hnxttv.com:9601/live/dspd/800K/tzwj_video.m3u8?zhund
娄底综合频道,http://119.39.242.52:1935/live/zonghe/playlist.m3u8?zhund
娄底综合频道,http://mms.ldntv.cn:1935/live/_definst_/zonghe/playlist.m3u8?zhund
益阳新闻综合,http://fms.yyrtv.com:82/hls-live/livepkgr/_definst_/liveevent/yyrtvxwhd210130.m3u8?zhund
益阳教育频道,http://fms.yyrtv.com:82/hls-live/livepkgr/_definst_/liveevent/yyrtvjy210130.m3u8?zhund
益阳公共频道,http://fms.yyrtv.com:82/hls-live/livepkgr/_definst_/liveevent/yyrtvgg210130.m3u8?zhund
衡阳新闻综合,http://59.51.68.40:1936/live/2.stream/playlist.m3u8?zhund
衡阳新闻综合,http://play-dgv-xhncloud.voc.com.cn/live/5243_ImycEv.m3u8?zhund
衡阳新闻综合,http://hnhs.chinashadt.com:1936/hnhs/tv5.stream/playlist.m3u8?zhund
衡阳公共频道,http://59.51.68.40:1936/live/3.stream/playlist.m3u8?zhund
宁乡综合频道,http://b.ds.ch.dingtoo.com/AppName/StreamName.m3u8?zhund
保靖时政频道,http://liveplay.rednet.cn/live/baojing_hgs24f.m3u8?zhund
泸溪电视台,http://liveplay.rednet.cn/live/luxi_fe0eyf.m3u8?zhund
永顺综合频道,http://liveplay.rednet.cn/live/yongshun_tv_55433f.m3u8?zhund
湘潭县综合,http://21084.liveplay.myqcloud.com/live/21084_13241b8296ee11e892905cb9018cf0d4.m3u8?zhund
云溪新闻综合,http://liveplay.rednet.cn/live/yunxi_tv.m3u8?zhund
临武综合频道,https://liveplay-srs.voc.com.cn/hls/tv/148/d51058.m3u8?zhund
茶陵新闻综合,http://liveplay.rednet.cn/live/chaling_tv.m3u8?zhund
醴陵综合频道,http://liveplay.rednet.cn/live/21084_145ba4ee9f0511e992905cb9018cf0d4.m3u8?zhund
江华综合,http://liveplay.rednet.cn/live/jianghua_tv_bcdee8.m3u8?zhund
双牌综合,http://liveplay.rednet.cn/live/shuangpai_26cf9e.m3u8?zhund
洪江市综合,http://liveplay.rednet.cn/live/hongjiang_tv_ced5a7.m3u8?zhund
浙江,#genre#
浙江,http://39.135.32.10:6610/000000001000/HD-4000k-1080P-zhejiangstv/1.m3u8?IASHttpSessionId=OTT?zzhed
浙江钱江都市,http://hw-m-l.cztv.com/channels/lantian/channel002/1080p.m3u8?zzhed
浙江钱江都市,http://yd-m-l.cztv.com/channels/lantian/channel002/1080p.m3u8?zzhed
浙江钱江都市,http://hw-m-l.cztv.com/channels/lantian/channel02/720p.m3u8?zzhed
浙江钱江都市,http://hw-m-l.cztv.com/channels/lantian/channel02/360p.m3u8?zzhed
浙江经济生活,http://hw-m-l.cztv.com/channels/lantian/channel003/1080p.m3u8?zzhed
浙江经济生活,http://yd-m-l.cztv.com/channels/lantian/channel003/1080p.m3u8?zzhed
浙江经济生活,http://hw-m-l.cztv.com/channels/lantian/channel03/720p.m3u8?zzhed
浙江经济生活,http://hw-m-l.cztv.com/channels/lantian/channel03/360p.m3u8?zzhed
浙江教科影院,http://hw-m-l.cztv.com/channels/lantian/channel004/1080p.m3u8?zzhed
浙江教科影院,http://yd-m-l.cztv.com/channels/lantian/channel004/1080p.m3u8?zzhed
浙江教科影院,http://hw-m-l.cztv.com/channels/lantian/channel04/720p.m3u8?zzhed
浙江教科影院,http://hw-m-l.cztv.com/channels/lantian/channel04/360p.m3u8?zzhed
浙江民生休闲,http://hw-m-l.cztv.com/channels/lantian/channel006/1080p.m3u8?zzhed
浙江民生休闲,http://yd-m-l.cztv.com/channels/lantian/channel006/1080p.m3u8?zzhed
浙江民生休闲,http://hw-m-l.cztv.com/channels/lantian/channel06/720p.m3u8?zzhed
浙江民生休闲,http://hw-m-l.cztv.com/channels/lantian/channel06/360p.m3u8?zzhed
浙江新闻,http://hw-m-l.cztv.com/channels/lantian/channel007/1080p.m3u8?zzhed
浙江新闻,http://yd-m-l.cztv.com/channels/lantian/channel007/1080p.m3u8?zzhed
浙江新闻,http://hw-m-l.cztv.com/channels/lantian/channel07/720p.m3u8?zzhed
浙江新闻,http://hw-m-l.cztv.com/channels/lantian/channel07/360p.m3u8?zzhed
浙江国际,http://hw-m-l.cztv.com/channels/lantian/channel010/1080p.m3u8?zzhed
浙江国际,http://yd-m-l.cztv.com/channels/lantian/channel010/1080p.m3u8?zzhed
浙江国际,http://hw-m-l.cztv.com/channels/lantian/channel10/720p.m3u8?zzhed
浙江国际,http://hw-m-l.cztv.com/channels/lantian/channel10/360p.m3u8?zzhed
数码时代,http://hw-m-l.cztv.com/channels/lantian/channel012/1080p.m3u8?zzhed
数码时代,http://yd-m-l.cztv.com/channels/lantian/channel012/1080p.m3u8?zzhed
数码时代,http://hw-m-l.cztv.com/channels/lantian/channel12/720p.m3u8?zzhed
数码时代,http://hw-m-l.cztv.com/channels/lantian/channel12/360p.m3u8?zzhed
绍兴新闻综合,http://live.shaoxing.com.cn/video/s10001-sxhb/index.m3u8?zzhed
绍兴新闻综合,http://live.shaoxing.com.cn/video/s10001-sxtv1/index.m3u8?zzhed
绍兴公共频道,http://live.shaoxing.com.cn/video/s10001-sxtv2/index.m3u8?zzhed
绍兴文化影院,http://live.shaoxing.com.cn/video/s10001-sxtv3/index.m3u8?zzhed
金华新闻综合,http://live.plus.jinhua.com.cn/xwzh/playlist.m3u8?zzhed
金华教育科技,http://live.plus.jinhua.com.cn/jykj/playlist.m3u8?zzhed
金华公共频道,http://live.plus.jinhua.com.cn/jjsh/playlist.m3u8?zzhed
金华都市农村,http://live2.plus.jinhua.com.cn/dsnc/playlist.m3u8?zzhed
舟山新闻综合,http://live1.plus.wifizs.cn/xwzh/sd/live.m3u8?zzhed
舟山公共生活,http://live1.plus.wifizs.cn/ggsh/sd/live.m3u8?zzhed
舟山群岛旅游,http://live1.plus.wifizs.cn/qdly/sd/live.m3u8?zzhed
湖州新闻综合,http://live.plus.hugd.com/xwzhpd/sd/live.m3u8?zzhed
湖州公共民生,http://live1.plus.hugd.com/ggpd1/sd/live.m3u8?zzhed
湖州文化娱乐,http://live.plus.hugd.com/whylpd/sd/live.m3u8?zzhed
嘉兴新闻综合,http://pluslive.jiaxingren.com/xwzh/sd/live.m3u8?zzhed
温州新闻综合,rtmp://livetv.dhtv.cn/live/news?zzhed
温州经济科教,http://live.wzqmt.com/wztv2/sd/live.m3u8?zzhed
温州经济科教,rtmp://livetv.dhtv.cn/live/financial?zzhed
温州都市生活,http://live.wzqmt.com/wztv3/sd/live.m3u8?zzhed
温州都市生活,rtmp://livetv.dhtv.cn/live/citylife?zzhed
温州公共频道,http://live.wzqmt.com/wztv4/sd/live.m3u8?zzhed
武义新闻综合,http://l.cztvcloud.com/channels/lantian/SXwuyi1/720p.m3u8?zzhed
永康新闻综合,http://hlsv2.quklive.com/live/1625061424267104/index.m3u8?zzhed
平湖新闻综合,http://l.cztvcloud.com/channels/lantian/SXpinghu1/720p.m3u8?zzhed
平湖民生休闲,http://l.cztvcloud.com/channels/lantian/SXpinghu2/720p.m3u8?zzhed
萧山新闻综合,http://l.cztvcloud.com/channels/lantian/SXxiaoshan1/720p.m3u8?zzhed
萧山生活频道,http://l.cztvcloud.com/channels/lantian/SXxiaoshan2/720p.m3u8?zzhed
淳安电视台,https://wtmtyoutlive.watonemt.com/f2p7vq/lf76v9.m3u8?zzhed
淳安电视台,https://wtmtylive.yunshicloud.com/tbziu1/ad592j.m3u8?zzhed
桐庐综合频道,http://livetongl.chinamcache.com/live/tlzb01.m3u8?txSecret=2ee28a051ebfb1b0771869a7d652d4a9&txTime=639a8391?zzhed
余杭综合频道,http://l.cztvcloud.com/channels/lantian/SXyuhang1/720p.m3u8?zzhed
余杭未来E频道,http://l.cztvcloud.com/channels/lantian/SXyuhang3/720p.m3u8?zzhed
余姚新闻综合,http://l.cztvcloud.com/channels/lantian/SXyuyao1/720p.m3u8?zzhed
余姚姚江文化,http://l.cztvcloud.com/channels/lantian/SXyuyao3/720p.m3u8?zzhed
嵊州新闻综合,http://l.cztvcloud.com/channels/lantian/SXshengzhou1/720p.m3u8?zzhed
嵊州新闻综合,https://hlsv2.quklive.com/live/1626935015913208/index.m3u8?zzhed
诸暨新闻综合,http://l.cztvcloud.com/channels/lantian/SXzhuji3/720p.m3u8?zzhed
上虞新闻综合,http://l.cztvcloud.com/channels/lantian/SXshangyu1/720p.m3u8?zzhed
上虞文化影院,http://l.cztvcloud.com/channels/lantian/SXshangyu2/720p.m3u8?zzhed
上虞新商都,http://l.cztvcloud.com/channels/lantian/SXshangyu3/720p.m3u8?zzhed
海宁新闻综合,http://live.hndachao.cn/xwzh/sd/live.m3u8?zzhed
海宁生活服务,http://live.hndachao.cn/shfw/sd/live.m3u8?zzhed
兰溪新闻综合,http://l.cztvcloud.com/channels/lantian/SXlanxi1/720p.m3u8?zzhed
福建,#genre#
厦门卫视,http://117.148.179.157/PLTV/88888888/224/3221229184/index.m3u8?zfud
福建综合,http://p2.weizan.cn/11844069/132114573749498521/live.m3u8?zfud
福州综合,http://live.zohi.tv/video/s10001-FZTV-1/index.m3u8?zfud
福州影院,http://live.zohi.tv/video/s10001-yspd-2/index.m3u8?zfud
福州生活,http://live.zohi.tv/video/s10001-shpd-3/index.m3u8?zfud
龙岩新闻综合,http://live.lytv.net.cn/zhpwd/hd/live.m3u8?zfud
龙岩新闻综合,http://stream.lytv.net.cn/2/sd/live.m3u8?zfud
龙岩公共频道,http://live.lytv.net.cn/ggpd/sd/live.m3u8?zfud
龙岩公共频道,http://stream.lytv.net.cn/1/sd/live.m3u8?zfud
宁德新闻综合,http://live.nddst.com/NDTV1D/M/live.m3u8?zfud
宁德新闻综合,http://live.nddst.com/NDTV1D/playlist.m3u8?zfud
宁德公共频道,http://live.nddst.com/NDTV2D/M/live.m3u8?zfud
宁德公共频道,http://live.nddst.com/NDTV2D/playlist.m3u8?zfud
三明新闻综合,http://fjnhdb.chinashadt.com:2036/live/stream:nh2.stream/playlist.m3u8?zfud
三明新闻综合,http://stream.smntv.cn/smtv1/sd/live.m3u8?zfud
三明公共频道,http://stream.smntv.cn/smtv2/sd/live.m3u8?zfud
新罗电视一套,http://stream.lyxltv.com/xltv/sd/live.m3u8?zfud
大田二套,http://84y6jdxz.live2.danghongyun.com/live/hls/8a6db004318e4378b58d87f0414da77c/5a6c5d786f834df8a65b423af5851e6f.m3u8?zfud
将乐综合,http://218.106.152.196/lsdream/9nbYeUc/1000/live.m3u8?fujian
建宁综合频道,https://p2.weizan.cn/2144741973/075444991326676404/live.m3u8?zfud
宁化电视一套,http://fjnhdb.chinashadt.com:2036/live/stream:nh1.stream/playlist.m3u8?fujian
泰宁新闻频道,https://p2.weizan.cn/2123201810/941522397962841708/live.m3u8?zfud
永安综合频道,http://218.106.152.196/lsdream/x6FnPrm/2000/live.m3u8?fujian
霞浦综合频道,http://218.106.152.196/lsdream/G7wCyZW/4000/live.m3u8?zfud
永泰综合,http://ytrmtzx.com:8278/yongtaipindao1/playlist.m3u8?fujian
德化新闻综合,http://218.106.152.196/lsdream/2LacKP6/1024/live.m3u8?zfud
晋江电视台,http://stream.jinjiang.tv/1/sd/live.m3u8?zfud
石狮综合,http://218.106.152.196/lsdream/MO13IYx/2000/live.m3u8?zfud
云霄综合,http://live.zzyxxw.com:85/live/xwzh.m3u8?fujian
漳浦综合,http://220.161.87.62:8090/hls/0/index.m3u8?zfud
江苏,#genre#
江苏,http://39.135.32.24:6610/000000001000/1000000001000004684/1.m3u8?xtkg?zjiangsd
优漫卡通,http://39.135.32.10:6610/000000001000/SD-4000k-576P-youmankaton/1.m3u8?IASHttpSessionId=OTT?zjiangsd
优漫卡通,http://39.134.65.130/PLTV/88888888/224/3221225556/1.m3u8?zjiangsd
优漫卡通,http://39.135.138.58:18890/PLTV/88888888/224/3221225665/index.m3u8?zjiangsd
优漫卡通,http://39.135.138.58:18890/ysten-businessmobile/live/youmankaton/1.m3u8?zjiangsd
优漫卡通,http://39.134.65.132/PLTV/88888888/224/3221225556/1.m3u8?zjiangsd
优漫卡通,http://111.63.117.13:6060/030000001000/G_YOUMAN/G_YOUMAN.m3u8?zjiangsd
江苏靓妆,http://39.134.115.191:8080/ysten.jx.chinamobile.com/PLTV/88888888/224/3221225509/2/index.m3u8?fmt=ts2hls?zjiangsd
江苏教育,http://117.148.179.157/PLTV/88888888/224/3221232828/index.m3u8?zjiangsd
江苏教育,http://117.148.179.157/PLTV/88888888/224/3221231631/index.m3u8?zjiangsd
苏州新闻综合,https://liveshowbak2.kan0512.com/norecord/ncsztv1_sd/playlist.m3u8?zjiangsd
苏州社会经济,https://liveshowbak2.kan0512.com/norecord/ncsztv2_sd/playlist.m3u8?zjiangsd
苏州文化生活,https://liveshowbak2.kan0512.com/norecord/ncsztv3_sd/playlist.m3u8?zjiangsd
苏州生活资讯,https://liveshowbak2.kan0512.com/norecord/ncsztv5_sd/playlist.m3u8?zjiangsd
苏州4k,http://liveshowbak2.kan0512.com/ksz-norecord/csztv4k_4k.m3u8?zjiangsd
南通新闻综合,http://cm.wshls.homecdn.com/live/7cc9.m3u8?zjiangsd
南通新闻综合,http://cm.wshls.homecdn.com/live/7cc9.flv?zjiangsd
南通都市生活,http://cm.wshls.homecdn.com/live/7cc7.m3u8?zjiangsd
南通都市生活,http://cm.wshls.homecdn.com/live/7cc7.flv?zjiangsd
南通影院娱乐,http://cm.wshls.homecdn.com/live/7cc5.m3u8?zjiangsd
南通影院娱乐,http://cm.wshls.homecdn.com/live/7cc5.flv?zjiangsd
南通崇川综合,http://cm.wshls.homecdn.com/live/7cc1.m3u8?zjiangsd
南通崇川综合,http://cm.wshls.homecdn.com/live/7cc1.flv?zjiangsd
盐城新闻综合,http://stream.0515yc.cn/yctv1/playlist.m3u8?zjiangsd
盐城法制生活,http://stream.0515yc.cn/yctv2/playlist.m3u8?zjiangsd
盐城城市公共,http://stream.0515yc.cn/yctv3/playlist.m3u8?zjiangsd
徐州文艺影院,http://stream1.huaihai.tv/wyys/sd/live.m3u8?zjiangsd
徐州公共频道,http://stream1.huaihai.tv/ggpd/sd/live.m3u8?zjiangsd
淮安新闻综合,http://live1.habctv.com/zhpdsl/sd/live.m3u8?zjiangsd
淮安公共频道,http://live1.habctv.com/ggpdsl/sd/live.m3u8?zjiangsd
淮安影院娱乐,http://live1.habctv.com/ysylsl/sd/live.m3u8?zjiangsd
无锡新闻综合,http://m.m3u8.wifiwx.com/live/wifiwx-239.m3u8?zjiangsd
无锡新闻综合,http://stream.thmz.com/wxtv1/sd/live.m3u8?zjiangsd
无锡娱乐,http://m.m3u8.wifiwx.com/live/wifiwx-243.m3u8?zjiangsd
无锡娱乐,http://stream.thmz.com/wxtv2/sd/live.m3u8?zjiangsd
无锡都市资讯,http://m.m3u8.wifiwx.com/live/wifiwx-240.m3u8?zjiangsd
无锡都市资讯,http://stream.thmz.com/wxtv3/sd/live.m3u8?zjiangsd
无锡生活,http://m.m3u8.wifiwx.com/live/wifiwx-244.m3u8?zjiangsd
无锡生活,http://stream.thmz.com/wxtv4/sd/live.m3u8?zjiangsd
无锡经济,http://m.m3u8.wifiwx.com/live/wifiwx-245.m3u8?zjiangsd
无锡经济,http://stream.thmz.com/wxtv5/sd/live.m3u8?zjiangsd
泰州新闻综合,http://117.148.179.157/PLTV/88888888/224/3221231369/index.m3u8?zjiangsd
泰州新闻综合,http://117.148.179.157/PLTV/88888888/224/3221231430/index.m3u8?zjiangsd
泰州新闻综合,rtmp://live.mytaizhou.net:9935/live/xwzh_sd?zjiangsd
泰州经济生活,rtmp://live.mytaizhou.net:9935/live/jjsh_sd?zjiangsd
泰州影院娱乐,rtmp://live.mytaizhou.net:9935/live/ysyl_sd?zjiangsd
张家港新闻综合,http://3gvod.zjgonline.com.cn:1935/live/xinwenzonghe2/playlist.m3u8?zjiangsd
张家港民生频道,http://3gvod.zjgonline.com.cn:1935/live/shehuishenghuo2/playlist.m3u8?zjiangsd
滨海新闻综合,http://jsbh.chinashadt.com:2036/live/bh11.stream/playlist.m3u8?zjiangsd
大丰公共频道,http://dafeng-tv-hls.cm.jstv.com/dafeng-tv/dafenget.m3u8?zjiangsd
东台综合频道,http://dongtai-tv-hls.cm.jstv.com/dongtai-tv/dongtaizonghe.m3u8?zjiangsd
盐都综合频道,http://yandu-tv-hls.cm.jstv.com/yandu-tv/yanduzh.m3u8?zjiangsd
如东新闻综合,http://rudong-tv-hls.cm.jstv.com/rudong-tv/rdxwzh.m3u8?zjiangsd
江宁新闻频道,https://jiangning-tv-hls.cm.jstv.com/jiangning-tv/jnxwzh.m3u8?zjiangsd
六合新闻综合,https://p6.vzan.com/720020/626981218629939023/live.m3u8?zjiangsd
六合影院生活,https://p6.vzan.com/720020/517762918718461566/live.m3u8?zjiangsd
溧水新闻综合,http://live.lsrmw.cn/zhpd/sd/live.m3u8?zjiangsd
溧水影院娱乐,http://live.lsrmw.cn/ysyl/sd/live.m3u8?zjiangsd
铜山综合频道,http://stream.tstvxmt.com/tstv1/sd/live.m3u8?zjiangsd
铜山三农频道,http://stream.tstvxmt.com/ts3/sd/live.m3u8?zjiangsd
宜兴新闻频道,http://yixing-tv-ori-hls.jstv.com/yixing-tv-ori/yixing_xw.m3u8?zjiangsd
宜兴紫砂频道,http://yixing-tv-ori-hls.jstv.com/yixing-tv-ori/yixing_zs.m3u8?zjiangsd
淮阴综合频道,http://huaiyin-tv-hls.cm.jstv.com/huaiyin-tv/huaiyinf.m3u8?zjiangsd
淮阴影院频道,http://huaiyin-tv-hls.cm.jstv.com/huaiyin-tv/hyys.m3u8?zjiangsd
金湖新闻综合,http://jinhu-tv-hls.cm.jstv.com/jinhu-tv/jinhuzh.m3u8?zjiangsd
涟水综合频道,http://lianshui-tv-hls.cm.jstv.com/lianshui-tv/lsxw.m3u8?zjiangsd
金坛新闻频道,http://jintan-tv-ori-hls.jstv.com/jintan-tv-ori/jintan_xw.m3u8?zjiangsd
武进新闻频道,https://live.wjyanghu.com/live/CH1.m3u8?zjiangsd
武进生活频道,https://live.wjyanghu.com/live/CH2.m3u8?zjiangsd
海安新闻综合,http://haian-tv-hls.cm.jstv.com/haian-tv/haaxwzh.m3u8?zjiangsd
新沂新闻频道,http://live.xysrmt.cn/xwzh/sd/live.m3u8?zjiangsd
泗洪新闻综合,http://sihong-tv-hls.cm.jstv.com/sihong-tv/sihongxinwenzonghe.m3u8?zjiangsd
句容新闻综合,http://jrlive.jrntv.com/live/_definst_/jrxwzhs/playlist.m3u8?zjiangsd
句容生活频道,http://jrlive.jrntv.com/live/_definst_/shenghuos/playlist.m3u8?zjiangsd
句容影院频道,http://jrlive.jrntv.com/live/_definst_/yingshis/playlist.m3u8?zjiangsd
句容党建频道,http://jrlive.jrntv.com/live/_definst_/dangjians/playlist.m3u8?zjiangsd
常熟新闻频道,http://play-live.21cs.cn/tv_channel/cstv1.m3u8?auth_key=1592026485-f871ffb1e3b646d59dba799b1e6f3d61-0-53bbc432233cf87b39a6ec67a23981c3?zjiangsd
常熟民生频道,http://play-live.21cs.cn/tv_channel/cstv2.m3u8?auth_key=1608898309-c151073d455d41568920a185f794ce70-0-24c93261a31cc28cf1ae2aced18ae008?zjiangsd
睢宁综合频道,http://suining-tv-hls.cm.jstv.com/suining-tv/suiningzh.m3u8?zjiangsd
睢宁生活教育,http://suining-tv-hls.cm.jstv.com/suining-tv/suiningsh.m3u8?zjiangsd
睢宁三农频道,http://suining-tv-hls.cm.jstv.com/suining-tv/suiningsn.m3u8?zjiangsd
睢宁资讯频道,http://suining-tv-hls.cm.jstv.com/suining-tv/suiningys.m3u8?zjiangsd
姜堰新闻综合,https://jiangyan-tv-hls.cm.jstv.com/jiangyan-tv/jiangyanzh.m3u8?zjiangsd
沭阳综合频道,http://shuyang-tv-hls.cm.jstv.com/shuyang-tv/shuyangzh.m3u8?zjiangsd
扬中新闻频道,http://yangzhong-tv-hls.cm.jstv.com/yangzhong-tv/xwzh.m3u8?zjiangsd
扬中党建民生,http://yangzhong-tv-hls.cm.jstv.com/yangzhong-tv/yzdj.m3u8?zjiangsd
靖江新闻综合,http://visit.jjbctv.com:1935/live/xwzhpc/playlist.m3u8?zjiangsd
靖江新闻综合,rtmp://visit.jjbctv.com:1935/live/xwzhpc?zjiangsd
靖江新闻综合,http://visit.jjbctv.com:1935/live/xwzhmb/playlist.m3u8?zjiangsd
靖江新闻综合,rtmp://visit.jjbctv.com:1935/live/xwzhmb?zjiangsd
东海新闻频道,http://donghai-tv-hls.cm.jstv.com/donghai-tv/donghaixinwensp.m3u8?zjiangsd
高邮综合频道,http://gaoyou-tv-hls.cm.jstv.com/gaoyou-tv/gaoyouxw.m3u8?zjiangsd
仪征新闻综合,http://yizheng-tv-hls.cm.jstv.com/yizheng-tv/yzxwzh.m3u8?zjiangsd
仪征生活频道,http://yizheng-tv-hls.cm.jstv.com/yizheng-tv/yzshsh.m3u8?zjiangsd
贾汪新闻频道,http://jiawang-tv-hls.cm.jstv.com/jiawang-tv/jwxw.m3u8?zjiangsd
贾汪旅游频道,http://jiawang-tv-hls.cm.jstv.com/jiawang-tv/jwly.m3u8?zjiangsd
沛县新闻综合,http://peixian-tv-hls.cm.jstv.com/peixian-tv/pxzh.m3u8?zjiangsd
泗阳综合频道,http://siyang-tv-hls.cm.jstv.com/siyang-tv/siyangzh.m3u8?zjiangsd
泗阳资讯频道,http://siyang-tv-hls.cm.jstv.com/siyang-tv/siyangzx.m3u8?zjiangsd
赣榆新闻综合,http://ganyu-tv-hls.cm.jstv.com/ganyu-tv/ganyutv.m3u8?zjiangsd
江西,#genre#
江西,http://39.135.32.24:6610/000000001000/1000000001000013731/1.m3u8?xtkg?zjiangxd
江西都市,http://local.live.jxtvcn.com.cn/live-jxtv/tv_jxtv2.m3u8?zjiangxd
江西都市,http://39.134.115.191:8080/ysten.jx.chinamobile.com/PLTV/88888888/224/3221225584/2/index.m3u8?fmt=ts2hls?zjiangxd
江西经济生活,http://local.live.jxtvcn.com.cn/live-jxtv/tv_jxtv3.m3u8?zjiangxd
江西经济生活,http://local.live.jxtvcn.com.cn/live-jxtv/tv_jxtv3_hd.m3u8?zjiangxd
江西影旅游,http://local.live.jxtvcn.com.cn/live-jxtv/tv_jxtv4.m3u8?zjiangxd
江西影旅游,http://39.134.115.191:8080/ysten.jx.chinamobile.com/PLTV/88888888/224/3221225579/2/index.m3u8?fmt=ts2hls?zjiangxd
江西公共农业,http://local.live.jxtvcn.com.cn/live-jxtv/tv_jxtv5.m3u8?zjiangxd
江西公共农业,http://39.134.115.191:8080/ysten.jx.chinamobile.com/PLTV/88888888/224/3221225578/2/index.m3u8?fmt=ts2hls?zjiangxd
江西新闻,http://local.live.jxtvcn.com.cn/live-jxtv/tv_jxtv7.m3u8?zjiangxd
江西新闻,http://39.134.115.191:8080/ysten.jx.chinamobile.com/PLTV/88888888/224/3221225576/2/index.m3u8?fmt=ts2hls?zjiangxd
江西移动电视,http://local.live.jxtvcn.com.cn/live-jxtv/tv_jxtv8.m3u8?zjiangxd
江西陶瓷,http://local.live.jxtvcn.com.cn/live-jxtv/tv_taoci.m3u8?zjiangxd
江西教育,http://39.134.115.191:8080/ysten.jx.chinamobile.com/PLTV/88888888/224/3221226197/2/index.m3u8?fmt=ts2hls?zjiangxd
南昌新闻综合,http://39.135.138.58:18890/PLTV/88888888/224/3221226223/index.m3u8?zjiangxd
南昌都市,http://39.135.138.58:18890/PLTV/88888888/224/3221226226/index.m3u8?zjiangxd
南昌资讯政法,http://39.135.138.58:18890/PLTV/88888888/224/3221226228/index.m3u8?zjiangxd
南昌公共,http://39.135.138.58:18890/PLTV/88888888/224/3221226231/index.m3u8?zjiangxd
新余新闻综合,http://live02.jxtvcn.com.cn/live-jxtvcn/ganyun_xinyu_hd1.m3u8?zjiangxd
新余公共频道,http://live02.jxtvcn.com.cn/live-jxtvcn/ganyun_xinyu_hd2.m3u8?zjiangxd
新余教育频道,http://live02.jxtvcn.com.cn/live-jxtvcn/ganyun_xinyu_hd3.m3u8?zjiangxd
吉安新闻综合,http://stream.ijatv.com/jatv1/hd/live.m3u8?zjiangxd
吉安公共,http://stream.ijatv.com/jatv2/hd/live.m3u8?zjiangxd
上饶新闻综合,http://live.0793.tv/srtv1/sd/live.m3u8?zjiangxd
上饶公共,http://live.0793.tv/srtv2/sd/live.m3u8?zjiangxd
赣州新闻综合,http://pl1.cloud.dayang.com.cn/live/10062_nfeG7l.m3u8?zjiangxd
赣州公共频道,http://pl1.cloud.dayang.com.cn/live/10062_Naq1lu.m3u8?zjiangxd
赣州教育频道,http://pl1.cloud.dayang.com.cn/live/10062_ojZz8U.m3u8?zjiangxd
瑞金综合频道,http://live.mudu.tv/watch/u2udf0.m3u8?zjiangxd
信丰综合频道,https://hwplay-hls.myun.tv/live/loy679o0.m3u8?zjiangxd
鄱阳综合,http://pili-live-hls.poyang.jxxw.com.cn/pyxrmtzx/poyang.m3u8?zjiangxd
玉山新闻综合,http://tv.yszc.com.cn/rmt/live.m3u8?zjiangxd
东乡区综合频道,http://live.mudu.tv/watch/hnkexb.m3u8?zjiangxd
靖安综合频道,http://p2.weizan.cn/1033266991/390440013668519726/live.m3u8?zjiangxd
永新电视一套,http://jxyx.chinashadt.com:2036/live/1002.stream/playlist.m3u8?zjiangxd
八大综艺台,http://8.218.112.221:8086/channel.m3u8?fid=4gtv-4gtv039&hd=720
三立财经新闻iNEWS,http://8.218.112.221:8086/channel.m3u8?fid=4gtv-live089&hd=720
三立综合台,http://8.218.112.221:8086/channel.m3u8?fid=4gtv-live207&hd=720
大爱二台,http://8.218.112.221:8086/channel.m3u8?fid=4gtv-live106&hd=720
大爱电视,http://8.218.112.221:8086/channel.m3u8?fid=4gtv-live007&hd=720
中天全民最大党,http://8.218.112.221:8086/channel.m3u8?fid=4gtv-live076&hd=720
中天美食旅游,http://8.218.112.221:8086/channel.m3u8?fid=4gtv-live123&hd=720
中天综合台,http://8.218.112.221:8086/channel.m3u8?fid=4gtv-live033&hd=720
中天新闻台,http://8.218.112.221:8086/channel.m3u8?fid=4gtv-4gtv009&hd=720
中视,http://8.218.112.221:8086/channel.m3u8?fid=4gtv-4gtv040&hd=720
中视经典台,http://8.218.112.221:8086/channel.m3u8?fid=4gtv-4gtv080&hd=720
中视菁采台,http://8.218.112.221:8086/channel.m3u8?fid=4gtv-4gtv064&hd=720
中视新闻,http://8.218.112.221:8086/channel.m3u8?fid=4gtv-4gtv074&hd=720
公视戏剧,http://8.218.112.221:8086/channel.m3u8?fid=4gtv-4gtv042&hd=720
车迷TV,http://8.218.112.221:8086/channel.m3u8?fid=4gtv-live201&hd=720
东森财经新闻台,http://8.218.112.221:8086/channel.m3u8?fid=4gtv-live019&hd=720
东森购物一台,http://8.218.112.221:8086/channel.m3u8?fid=4gtv-live047&hd=720
东森购物二台,http://8.218.112.221:8086/channel.m3u8?fid=4gtv-live046&hd=720
东森新闻台,http://8.218.112.221:8086/channel.m3u8?fid=4gtv-live114&hd=720
尼克儿童频道,http://8.218.112.221:8086/channel.m3u8?fid=4gtv-live105&hd=720
民视,http://8.218.112.221:8086/channel.m3u8?fid=4gtv-4gtv002&hd=720
民视台湾台,http://8.218.112.221:8086/channel.m3u8?fid=4gtv-4gtv001&hd=720
民视旅游台,http://8.218.112.221:8086/channel.m3u8?fid=litv-ftv07&hd=720
民视第一台,http://8.218.112.221:8086/channel.m3u8?fid=4gtv-4gtv003&hd=720
民视综艺台,http://8.218.112.221:8086/channel.m3u8?fid=4gtv-4gtv004&hd=720
民视新闻台,http://8.218.112.221:8086/channel.m3u8?fid=litv-ftv13&hd=720
民视影剧台,http://8.218.112.221:8086/channel.m3u8?fid=litv-ftv09&hd=720
电影原声台CMusic,http://8.218.112.221:8086/channel.m3u8?fid=4gtv-live031&hd=720
龙华电影台,http://8.218.112.221:8086/channel.m3u8?fid=litv-longturn03&hd=720
龙华戏剧台,http://8.218.112.221:8086/channel.m3u8?fid=litv-longturn18&hd=720
亚洲旅游台,http://8.218.112.221:8086/channel.m3u8?fid=litv-longturn17&hd=720
华视,http://8.218.112.221:8086/channel.m3u8?fid=4gtv-4gtv041&hd=720
华视新闻,http://8.218.112.221:8086/channel.m3u8?fid=4gtv-4gtv052&hd=720
时尚运动X,http://8.218.112.221:8086/channel.m3u8?fid=4gtv-4gtv014&hd=720
达文西频道,http://8.218.112.221:8086/channel.m3u8?fid=4gtv-4gtv018&hd=720
幸福空间居家台,http://8.218.112.221:8086/channel.m3u8?fid=4gtv-live206&hd=720
客家电视台,http://8.218.112.221:8086/channel.m3u8?fid=4gtv-4gtv043&hd=720
爱尔达生活旅游台,http://8.218.112.221:8086/channel.m3u8?fid=4gtv-live120&hd=720
爱尔达娱乐台,http://8.218.112.221:8086/channel.m3u8?fid=4gtv-4gtv070&hd=720
猪哥亮歌厅秀,http://8.218.112.221:8086/channel.m3u8?fid=4gtv-4gtv006&hd=720
博斯无限台,http://8.218.112.221:8086/channel.m3u8?fid=litv-longturn10&hd=720
博斯网球台,http://8.218.112.221:8086/channel.m3u8?fid=litv-longturn09&hd=720
博斯运动一台,http://8.218.112.221:8086/channel.m3u8?fid=litv-longturn07&hd=720
博斯高球台,http://8.218.112.221:8086/channel.m3u8?fid=litv-longturn05&hd=720
智林体育台,http://8.218.112.221:8086/channel.m3u8?fid=4gtv-4gtv101&hd=720
韩国娱乐台 KMTV,http://8.218.112.221:8086/channel.m3u8?fid=4gtv-4gtv016&hd=720
新唐人亚太台,http://8.218.112.221:8086/channel.m3u8?fid=4gtv-live050&hd=720
滚动力rollor,http://8.218.112.221:8086/channel.m3u8?fid=4gtv-live012&hd=720
靖天日本台,http://8.218.112.221:8086/channel.m3u8?fid=4gtv-4gtv047&hd=720
靖天卡通台,http://8.218.112.221:8086/channel.m3u8?fid=4gtv-4gtv044&hd=720
靖天电影台,http://8.218.112.221:8086/channel.m3u8?fid=4gtv-4gtv061&hd=720
靖天育乐台,http://8.218.112.221:8086/channel.m3u8?fid=4gtv-4gtv062&hd=720
靖天资讯台,http://8.218.112.221:8086/channel.m3u8?fid=4gtv-4gtv065&hd=720
靖天综合台,http://8.218.112.221:8086/channel.m3u8?fid=4gtv-4gtv046&hd=720
靖洋卡通Nice Bingo,http://8.218.112.221:8086/channel.m3u8?fid=4gtv-4gtv057&hd=720
影迷数位电影台,http://8.218.112.221:8086/channel.m3u8?fid=4gtv-4gtv011&hd=720
寰宇新闻台,http://8.218.112.221:8086/channel.m3u8?fid=litv-longturn14&hd=720
镜电视新闻台,http://8.218.112.221:8086/channel.m3u8?fid=4gtv-4gtv075&hd=720
amc最爱电影,http://8.218.112.221:8086/channel.m3u8?fid=4gtv-4gtv017&hd=720
ARIRANG阿里郎频道,http://8.218.112.221:8086/channel.m3u8?fid=4gtv-4gtv079&hd=720
CLASSICA 古典乐,http://8.218.112.221:8086/channel.m3u8?fid=4gtv-4gtv059&hd=720
CN卡通,http://8.218.112.221:8086/channel.m3u8?fid=4gtv-live205&hd=720
ELTV生活英语台,http://8.218.112.221:8086/channel.m3u8?fid=litv-longturn20&hd=720
GINX Esports TV,http://8.218.112.221:8086/channel.m3u8?fid=4gtv-4gtv053&hd=720
History 历史频道,http://8.218.112.221:8086/channel.m3u8?fid=4gtv-live026&hd=720
i-Fun动漫台,http://8.218.112.221:8086/channel.m3u8?fid=litv-ftv15&hd=720
KLT-靖天国际台,http://8.218.112.221:8086/channel.m3u8?fid=4gtv-4gtv063&hd=720
Lifetime 娱乐频道,http://8.218.112.221:8086/channel.m3u8?fid=4gtv-live029&hd=720
LiveABC互动英语频道,http://8.218.112.221:8086/channel.m3u8?fid=4gtv-live030&hd=720
Love Nature,http://8.218.112.221:8086/channel.m3u8?fid=4gtv-live208&hd=720
LUXE TV Channel,http://8.218.112.221:8086/channel.m3u8?fid=4gtv-live121&hd=720
Mezzo Live,http://8.218.112.221:8086/channel.m3u8?fid=4gtv-4gtv083&hd=720
MOMO亲子台,http://8.218.112.221:8086/channel.m3u8?fid=4gtv-live107&hd=720
MTV Live  音乐频道,http://8.218.112.221:8086/channel.m3u8?fid=4gtv-live025&hd=720
Nice TV 靖天欢乐台,http://8.218.112.221:8086/channel.m3u8?fid=4gtv-4gtv054&hd=720
Nick Jr. 儿童频道,http://8.218.112.221:8086/channel.m3u8?fid=4gtv-live032&hd=720
Pet Club TV,http://8.218.112.221:8086/channel.m3u8?fid=4gtv-live110&hd=720
SBN全球财经台,http://8.218.112.221:8086/channel.m3u8?fid=4gtv-live060&hd=720
Smithsonian Channel,http://8.218.112.221:8086/channel.m3u8?fid=4gtv-live088&hd=720
TechStorm,http://8.218.112.221:8086/channel.m3u8?fid=4gtv-live109&hd=720
TRACE Sport Stars,http://8.218.112.221:8086/channel.m3u8?fid=4gtv-4gtv077&hd=720
TRACE Urban,http://8.218.112.221:8086/channel.m3u8?fid=4gtv-4gtv082&hd=720
TV5MONDE STYLE  生活时尚,http://8.218.112.221:8086/channel.m3u8?fid=4gtv-live122&hd=720
TVBS,http://8.218.112.221:8086/channel.m3u8?fid=4gtv-4gtv073&hd=720
TVBS欢乐台,http://8.218.112.221:8086/channel.m3u8?fid=4gtv-4gtv068&hd=720
TVBS新闻,http://8.218.112.221:8086/channel.m3u8?fid=4gtv-live072&hd=720
TVBS精采台,http://8.218.112.221:8086/channel.m3u8?fid=4gtv-live086&hd=720